%!PS-Adobe-3.0 EPSF-3.0
%%Creator: jlibeps 0.1, https://sourceforge.net/projects/jlibeps/
%%Title: UMLet Diagram
%%CreationDate: Mon Apr 01 09:11:49 WET 2013
%%BoundingBox: 0 0 340 90
%%DocumentData: Clean7Bit
%%DocumentProcessColors: Black
%%ColorUsage: Color
%%Origin: 0 0
%%Pages: 1
%%Page: 1 1
%%EndComments

gsave
-0.0 90.0 translate
1.0 setlinewidth
10.0 setmiterlimit
0 setlinejoin
2 setlinecap
[ ] 0 setdash
gsave
newpath
0.0 -0.0 moveto
340.0 -0.0 lineto
340.0 -90.0 lineto
0.0 -90.0 lineto
0.0 -0.0 lineto
closepath
clip
newpath
1.0 1.0 1.0 setrgbcolor
newpath
0.0 -0.0 moveto
340.0 -0.0 lineto
340.0 -90.0 lineto
0.0 -90.0 lineto
0.0 -0.0 lineto
closepath
fill
newpath
1.0 setlinewidth
10.0 setmiterlimit
0 setlinejoin
2 setlinecap
[ ] 0 setdash
0.29803923 0.29803923 0.29803923 setrgbcolor
0.0 0.0 0.0 setrgbcolor
1.0 1.0 1.0 setrgbcolor
newpath
20.0 -40.0 moveto
119.0 -40.0 lineto
119.0 -69.0 lineto
20.0 -69.0 lineto
20.0 -40.0 lineto
closepath
fill
newpath
0.0 0.0 0.0 setrgbcolor
1.0 setlinewidth
10.0 setmiterlimit
0 setlinejoin
2 setlinecap
[ ] 0 setdash
newpath
20.0 -40.0 moveto
119.0 -40.0 lineto
119.0 -69.0 lineto
20.0 -69.0 lineto
20.0 -40.0 lineto
closepath
stroke
newpath
1.0 setlinewidth
10.0 setmiterlimit
0 setlinejoin
2 setlinecap
[ ] 0 setdash
0.0 0.0 0.0 setrgbcolor
newpath
57.21875 -55.84375 moveto
59.609375 -46.796875 lineto
61.046875 -46.796875 lineto
58.046875 -57.0 lineto
56.375 -57.0 lineto
53.390625 -46.796875 lineto
54.8125 -46.796875 lineto
57.21875 -55.84375 lineto
closepath
63.17871 -49.34375 moveto
66.39746 -49.34375 lineto
66.39746 -56.015625 lineto
68.89746 -56.015625 lineto
68.89746 -57.0 lineto
62.64746 -57.0 lineto
62.64746 -56.015625 lineto
65.14746 -56.015625 lineto
65.14746 -50.328125 lineto
63.17871 -50.328125 lineto
63.17871 -49.34375 lineto
closepath
65.14746 -46.359375 moveto
66.39746 -46.359375 lineto
66.39746 -47.953125 lineto
65.14746 -47.953125 lineto
65.14746 -46.359375 lineto
closepath
77.4668 -52.859375 moveto
77.4668 -53.46875 lineto
72.01367 -53.46875 lineto
72.01367 -53.515625 lineto
72.01367 -54.348957 72.22982 -54.992188 72.66211 -55.445312 curveto
73.0944 -55.898438 73.711586 -56.125 74.51367 -56.125 curveto
74.90951 -56.125 75.32617 -56.0625 75.76367 -55.9375 curveto
76.20117 -55.8125 76.66992 -55.619793 77.16992 -55.359375 curveto
77.16992 -56.609375 lineto
76.69076 -56.807293 76.22721 -56.95573 75.7793 -57.054688 curveto
75.33138 -57.153645 74.9043 -57.203125 74.49805 -57.203125 curveto
73.30013 -57.203125 72.367836 -56.846355 71.70117 -56.132812 curveto
71.03451 -55.41927 70.70117 -54.432293 70.70117 -53.171875 curveto
70.70117 -51.953125 71.0293 -50.979168 71.68555 -50.25 curveto
72.3418 -49.520832 73.2168 -49.15625 74.31055 -49.15625 curveto
75.2793 -49.15625 76.04752 -49.48698 76.615234 -50.148438 curveto
77.182945 -50.809895 77.4668 -51.713543 77.4668 -52.859375 curveto
closepath
76.20117 -52.484375 moveto
76.180336 -51.744793 76.00586 -51.182293 75.677734 -50.796875 curveto
75.34961 -50.411457 74.87305 -50.21875 74.24805 -50.21875 curveto
73.64388 -50.21875 73.146484 -50.41927 72.75586 -50.820312 curveto
72.365234 -51.221355 72.13346 -51.78125 72.06055 -52.5 curveto
76.20117 -52.484375 lineto
closepath
78.28613 -49.34375 moveto
79.53613 -49.34375 lineto
80.86426 -55.53125 lineto
81.95801 -51.578125 lineto
83.03613 -51.578125 lineto
84.14551 -55.53125 lineto
85.47363 -49.34375 lineto
86.70801 -49.34375 lineto
84.92676 -57.0 lineto
83.72363 -57.0 lineto
82.50488 -52.796875 lineto
81.28613 -57.0 lineto
80.08301 -57.0 lineto
78.28613 -49.34375 lineto
closepath
fill
newpath
1.0 setlinewidth
10.0 setmiterlimit
0 setlinejoin
2 setlinecap
[ ] 0 setdash
1.0 setlinewidth
10.0 setmiterlimit
0 setlinejoin
2 setlinecap
[ ] 0 setdash
0.29803923 0.29803923 0.29803923 setrgbcolor
0.0 0.0 0.0 setrgbcolor
1.0 1.0 1.0 setrgbcolor
newpath
220.0 -40.0 moveto
319.0 -40.0 lineto
319.0 -69.0 lineto
220.0 -69.0 lineto
220.0 -40.0 lineto
closepath
fill
newpath
0.0 0.0 0.0 setrgbcolor
1.0 setlinewidth
10.0 setmiterlimit
0 setlinejoin
2 setlinecap
[ ] 0 setdash
newpath
220.0 -40.0 moveto
319.0 -40.0 lineto
319.0 -69.0 lineto
220.0 -69.0 lineto
220.0 -40.0 lineto
closepath
stroke
newpath
1.0 setlinewidth
10.0 setmiterlimit
0 setlinejoin
2 setlinecap
[ ] 0 setdash
0.0 0.0 0.0 setrgbcolor
newpath
249.59375 -46.796875 moveto
251.4375 -46.796875 lineto
253.20312 -51.984375 lineto
254.96875 -46.796875 lineto
256.82812 -46.796875 lineto
256.82812 -57.0 lineto
255.54688 -57.0 lineto
255.54688 -47.984375 lineto
253.73438 -53.359375 lineto
252.6875 -53.359375 lineto
250.85938 -47.984375 lineto
250.85938 -57.0 lineto
249.59375 -57.0 lineto
249.59375 -46.796875 lineto
closepath
261.64746 -50.21875 moveto
261.00162 -50.21875 260.51465 -50.46875 260.18652 -50.96875 curveto
259.8584 -51.46875 259.69434 -52.203125 259.69434 -53.171875 curveto
259.69434 -54.151043 259.8584 -54.88802 260.18652 -55.382812 curveto
260.51465 -55.877605 261.00162 -56.125 261.64746 -56.125 curveto
262.28287 -56.125 262.76465 -55.877605 263.09277 -55.382812 curveto
263.4209 -54.88802 263.58496 -54.151043 263.58496 -53.171875 curveto
263.58496 -52.203125 263.4209 -51.46875 263.09277 -50.96875 curveto
262.76465 -50.46875 262.28287 -50.21875 261.64746 -50.21875 curveto
closepath
261.64746 -49.15625 moveto
262.69955 -49.15625 263.50943 -49.5 264.07715 -50.1875 curveto
264.64487 -50.875 264.9287 -51.869793 264.9287 -53.171875 curveto
264.9287 -54.484375 264.64746 -55.484375 264.08496 -56.171875 curveto
263.52246 -56.859375 262.70996 -57.203125 261.64746 -57.203125 curveto
260.58496 -57.203125 259.77246 -56.859375 259.20996 -56.171875 curveto
258.64746 -55.484375 258.3662 -54.484375 258.3662 -53.171875 curveto
258.3662 -51.869793 258.64746 -50.875 259.20996 -50.1875 curveto
259.77246 -49.5 260.58496 -49.15625 261.64746 -49.15625 curveto
closepath
271.7168 -50.328125 moveto
271.7168 -46.359375 lineto
272.98242 -46.359375 lineto
272.98242 -57.0 lineto
271.7168 -57.0 lineto
271.7168 -56.03125 lineto
271.50845 -56.416668 271.22983 -56.708332 270.88086 -56.90625 curveto
270.5319 -57.104168 270.13345 -57.203125 269.68555 -57.203125 curveto
268.75845 -57.203125 268.0293 -56.84375 267.49805 -56.125 curveto
266.9668 -55.40625 266.70117 -54.416668 266.70117 -53.15625 curveto
266.70117 -51.90625 266.9668 -50.927082 267.49805 -50.21875 curveto
268.0293 -49.510418 268.75845 -49.15625 269.68555 -49.15625 curveto
270.1439 -49.15625 270.54752 -49.255207 270.89648 -49.453125 curveto
271.24545 -49.651043 271.5189 -49.942707 271.7168 -50.328125 curveto
closepath
268.0293 -53.171875 moveto
268.0293 -54.151043 268.18295 -54.88802 268.49023 -55.382812 curveto
268.79752 -55.877605 269.25327 -56.125 269.85742 -56.125 curveto
270.47202 -56.125 270.93555 -55.875 271.24805 -55.375 curveto
271.56055 -54.875 271.7168 -54.140625 271.7168 -53.171875 curveto
271.7168 -52.203125 271.56055 -51.46875 271.24805 -50.96875 curveto
270.93555 -50.46875 270.47202 -50.21875 269.85742 -50.21875 curveto
269.25327 -50.21875 268.79752 -50.46875 268.49023 -50.96875 curveto
268.18295 -51.46875 268.0293 -52.203125 268.0293 -53.171875 curveto
closepath
281.8955 -52.859375 moveto
281.8955 -53.46875 lineto
276.44238 -53.46875 lineto
276.44238 -53.515625 lineto
276.44238 -54.348957 276.65854 -54.992188 277.09082 -55.445312 curveto
277.5231 -55.898438 278.1403 -56.125 278.94238 -56.125 curveto
279.33823 -56.125 279.75488 -56.0625 280.19238 -55.9375 curveto
280.62988 -55.8125 281.09863 -55.619793 281.59863 -55.359375 curveto
281.59863 -56.609375 lineto
281.11948 -56.807293 280.6559 -56.95573 280.208 -57.054688 curveto
279.7601 -57.153645 279.333 -57.203125 278.92676 -57.203125 curveto
277.72885 -57.203125 276.79654 -56.846355 276.12988 -56.132812 curveto
275.46323 -55.41927 275.12988 -54.432293 275.12988 -53.171875 curveto
275.12988 -51.953125 275.458 -50.979168 276.11426 -50.25 curveto
276.7705 -49.520832 277.6455 -49.15625 278.73926 -49.15625 curveto
279.708 -49.15625 280.47623 -49.48698 281.04395 -50.148438 curveto
281.61166 -50.809895 281.8955 -51.713543 281.8955 -52.859375 curveto
closepath
280.62988 -52.484375 moveto
280.60904 -51.744793 280.43457 -51.182293 280.10645 -50.796875 curveto
279.77832 -50.411457 279.30176 -50.21875 278.67676 -50.21875 curveto
278.0726 -50.21875 277.5752 -50.41927 277.18457 -50.820312 curveto
276.79395 -51.221355 276.56216 -51.78125 276.48926 -52.5 curveto
280.62988 -52.484375 lineto
closepath
287.08984 -54.21875 moveto
287.08984 -54.791668 287.1914 -55.221355 287.39453 -55.507812 curveto
287.59766 -55.79427 287.90234 -55.9375 288.3086 -55.9375 curveto
289.77734 -55.9375 lineto
289.77734 -57.0 lineto
288.1836 -57.0 lineto
287.4336 -57.0 286.85287 -56.757812 286.4414 -56.273438 curveto
286.02994 -55.789062 285.82422 -55.104168 285.82422 -54.21875 curveto
285.82422 -47.265625 lineto
283.8086 -47.265625 lineto
283.8086 -46.28125 lineto
287.08984 -46.28125 lineto
287.08984 -54.21875 lineto
closepath
fill
newpath
1.0 setlinewidth
10.0 setmiterlimit
0 setlinejoin
2 setlinecap
[ ] 0 setdash
1.0 setlinewidth
10.0 setmiterlimit
0 setlinejoin
2 setlinecap
[ ] 0 setdash
0.29803923 0.29803923 0.29803923 setrgbcolor
0.0 0.0 0.0 setrgbcolor
1.0 setlinewidth
10.0 setmiterlimit
0 setlinejoin
2 setlinecap
[ ] 0 setdash
newpath
220.0 -50.0 moveto
170.0 -50.0 lineto
stroke
newpath
newpath
170.0 -50.0 moveto
120.0 -50.0 lineto
stroke
newpath
1.0 setlinewidth
10.0 setmiterlimit
0 setlinejoin
2 setlinecap
[ ] 0 setdash
newpath
219.0 -50.0 moveto
207.0 -56.0 lineto
stroke
newpath
newpath
219.0 -50.0 moveto
207.0 -44.0 lineto
stroke
newpath
1.0 setlinewidth
10.0 setmiterlimit
0 setlinejoin
2 setlinecap
[ ] 0 setdash
grestore
grestore
showpage

%%EOF