%!PS-Adobe-3.0 EPSF-3.0
%%Creator: jlibeps 0.1, https://sourceforge.net/projects/jlibeps/
%%Title: UMLet Diagram
%%CreationDate: Mon Apr 01 09:29:10 WET 2013
%%BoundingBox: 0 0 360 90
%%DocumentData: Clean7Bit
%%DocumentProcessColors: Black
%%ColorUsage: Color
%%Origin: 0 0
%%Pages: 1
%%Page: 1 1
%%EndComments

gsave
-0.0 90.0 translate
1.0 setlinewidth
10.0 setmiterlimit
0 setlinejoin
2 setlinecap
[ ] 0 setdash
gsave
newpath
0.0 -0.0 moveto
360.0 -0.0 lineto
360.0 -90.0 lineto
0.0 -90.0 lineto
0.0 -0.0 lineto
closepath
clip
newpath
1.0 1.0 1.0 setrgbcolor
newpath
0.0 -0.0 moveto
360.0 -0.0 lineto
360.0 -90.0 lineto
0.0 -90.0 lineto
0.0 -0.0 lineto
closepath
fill
newpath
1.0 setlinewidth
10.0 setmiterlimit
0 setlinejoin
2 setlinecap
[ ] 0 setdash
0.29803923 0.29803923 0.29803923 setrgbcolor
0.0 0.0 0.0 setrgbcolor
1.0 1.0 1.0 setrgbcolor
newpath
20.0 -40.0 moveto
119.0 -40.0 lineto
119.0 -69.0 lineto
20.0 -69.0 lineto
20.0 -40.0 lineto
closepath
fill
newpath
0.0 0.0 0.0 setrgbcolor
1.0 setlinewidth
10.0 setmiterlimit
0 setlinejoin
2 setlinecap
[ ] 0 setdash
newpath
20.0 -40.0 moveto
119.0 -40.0 lineto
119.0 -69.0 lineto
20.0 -69.0 lineto
20.0 -40.0 lineto
closepath
stroke
newpath
1.0 setlinewidth
10.0 setmiterlimit
0 setlinejoin
2 setlinecap
[ ] 0 setdash
0.0 0.0 0.0 setrgbcolor
newpath
65.328125 -56.640625 moveto
64.984375 -56.828125 64.6276 -56.96875 64.25781 -57.0625 curveto
63.88802 -57.15625 63.494793 -57.203125 63.078125 -57.203125 curveto
61.776043 -57.203125 60.76302 -56.739582 60.039062 -55.8125 curveto
59.315105 -54.885418 58.953125 -53.583332 58.953125 -51.90625 curveto
58.953125 -50.239582 59.315105 -48.940105 60.039062 -48.007812 curveto
60.76302 -47.07552 61.776043 -46.609375 63.078125 -46.609375 curveto
63.494793 -46.609375 63.88802 -46.65625 64.25781 -46.75 curveto
64.6276 -46.84375 64.984375 -46.984375 65.328125 -47.171875 curveto
65.328125 -48.578125 lineto
64.99479 -48.307293 64.635414 -48.098957 64.25 -47.953125 curveto
63.864582 -47.807293 63.473957 -47.734375 63.078125 -47.734375 curveto
62.182293 -47.734375 61.510418 -48.08073 61.0625 -48.773438 curveto
60.614582 -49.466145 60.390625 -50.510418 60.390625 -51.90625 curveto
60.390625 -53.302082 60.614582 -54.346355 61.0625 -55.039062 curveto
61.510418 -55.73177 62.182293 -56.078125 63.078125 -56.078125 curveto
63.484375 -56.078125 63.880207 -56.005207 64.265625 -55.859375 curveto
64.65104 -55.713543 65.00521 -55.5 65.328125 -55.21875 curveto
65.328125 -56.640625 lineto
closepath
71.225586 -53.15625 moveto
70.80371 -53.15625 lineto
70.07455 -53.15625 69.52506 -53.283855 69.15527 -53.539062 curveto
68.785484 -53.79427 68.600586 -54.177082 68.600586 -54.6875 curveto
68.600586 -55.145832 68.73861 -55.502605 69.01465 -55.757812 curveto
69.29069 -56.01302 69.6735 -56.140625 70.163086 -56.140625 curveto
70.861 -56.140625 71.407875 -55.901043 71.80371 -55.421875 curveto
72.19955 -54.942707 72.39746 -54.28125 72.39746 -53.4375 curveto
72.39746 -53.15625 lineto
71.225586 -53.15625 lineto
closepath
73.663086 -52.625 moveto
73.663086 -57.0 lineto
72.39746 -57.0 lineto
72.39746 -55.859375 lineto
72.13705 -56.317707 71.80111 -56.65625 71.38965 -56.875 curveto
70.97819 -57.09375 70.4808 -57.203125 69.89746 -57.203125 curveto
69.11621 -57.203125 68.49381 -56.98177 68.03027 -56.539062 curveto
67.566734 -56.096355 67.33496 -55.505207 67.33496 -54.765625 curveto
67.33496 -53.921875 67.62142 -53.278645 68.194336 -52.835938 curveto
68.76725 -52.39323 69.6058 -52.171875 70.70996 -52.171875 curveto
72.39746 -52.171875 lineto
72.39746 -51.96875 lineto
72.39746 -51.354168 72.24381 -50.908855 71.93652 -50.632812 curveto
71.629234 -50.35677 71.14225 -50.21875 70.475586 -50.21875 curveto
70.0485 -50.21875 69.61621 -50.28125 69.17871 -50.40625 curveto
68.74121 -50.53125 68.314125 -50.713543 67.89746 -50.953125 curveto
67.89746 -49.6875 lineto
68.36621 -49.510418 68.814125 -49.377605 69.24121 -49.289062 curveto
69.6683 -49.20052 70.07975 -49.15625 70.475586 -49.15625 curveto
71.111 -49.15625 71.65267 -49.25 72.100586 -49.4375 curveto
72.5485 -49.625 72.913086 -49.90625 73.194336 -50.28125 curveto
73.361 -50.510418 73.4808 -50.791668 73.55371 -51.125 curveto
73.626625 -51.458332 73.663086 -51.958332 73.663086 -52.625 curveto
closepath
82.74805 -50.921875 moveto
82.48763 -50.713543 82.2168 -50.5625 81.93555 -50.46875 curveto
81.6543 -50.375 81.34701 -50.328125 81.01367 -50.328125 curveto
80.23242 -50.328125 79.63346 -50.572918 79.2168 -51.0625 curveto
78.80013 -51.552082 78.5918 -52.260418 78.5918 -53.1875 curveto
78.5918 -57.0 lineto
77.32617 -57.0 lineto
77.32617 -49.34375 lineto
78.5918 -49.34375 lineto
78.5918 -50.84375 lineto
78.80013 -50.302082 79.12305 -49.885418 79.56055 -49.59375 curveto
79.99805 -49.302082 80.51367 -49.15625 81.10742 -49.15625 curveto
81.41992 -49.15625 81.711586 -49.195312 81.98242 -49.273438 curveto
82.25326 -49.351562 82.50846 -49.473957 82.74805 -49.640625 curveto
82.74805 -50.921875 lineto
closepath
fill
newpath
1.0 setlinewidth
10.0 setmiterlimit
0 setlinejoin
2 setlinecap
[ ] 0 setdash
1.0 setlinewidth
10.0 setmiterlimit
0 setlinejoin
2 setlinecap
[ ] 0 setdash
0.29803923 0.29803923 0.29803923 setrgbcolor
0.0 0.0 0.0 setrgbcolor
1.0 1.0 1.0 setrgbcolor
newpath
240.0 -40.0 moveto
339.0 -40.0 lineto
339.0 -69.0 lineto
240.0 -69.0 lineto
240.0 -40.0 lineto
closepath
fill
newpath
0.0 0.0 0.0 setrgbcolor
1.0 setlinewidth
10.0 setmiterlimit
0 setlinejoin
2 setlinecap
[ ] 0 setdash
newpath
240.0 -40.0 moveto
339.0 -40.0 lineto
339.0 -69.0 lineto
240.0 -69.0 lineto
240.0 -40.0 lineto
closepath
stroke
newpath
1.0 setlinewidth
10.0 setmiterlimit
0 setlinejoin
2 setlinecap
[ ] 0 setdash
0.0 0.0 0.0 setrgbcolor
newpath
266.34375 -46.796875 moveto
272.40625 -46.796875 lineto
272.40625 -47.953125 lineto
267.73438 -47.953125 lineto
267.73438 -50.984375 lineto
272.20312 -50.984375 lineto
272.20312 -52.140625 lineto
267.73438 -52.140625 lineto
267.73438 -55.84375 lineto
272.53125 -55.84375 lineto
272.53125 -57.0 lineto
266.34375 -57.0 lineto
266.34375 -46.796875 lineto
closepath
280.6162 -52.25 moveto
280.6162 -57.0 lineto
279.3506 -57.0 lineto
279.3506 -52.25 lineto
279.3506 -51.5625 279.2308 -51.057293 278.9912 -50.734375 curveto
278.75162 -50.411457 278.37143 -50.25 277.8506 -50.25 curveto
277.26724 -50.25 276.81674 -50.458332 276.49902 -50.875 curveto
276.1813 -51.291668 276.02246 -51.890625 276.02246 -52.671875 curveto
276.02246 -57.0 lineto
274.75684 -57.0 lineto
274.75684 -49.34375 lineto
276.02246 -49.34375 lineto
276.02246 -50.484375 lineto
276.2412 -50.046875 276.5433 -49.716145 276.9287 -49.492188 curveto
277.31412 -49.26823 277.76724 -49.15625 278.2881 -49.15625 curveto
279.06934 -49.15625 279.65268 -49.414062 280.0381 -49.929688 curveto
280.4235 -50.445312 280.6162 -51.21875 280.6162 -52.25 curveto
closepath
287.7168 -53.109375 moveto
287.7168 -52.161457 287.56314 -51.442707 287.25586 -50.953125 curveto
286.94858 -50.463543 286.50327 -50.21875 285.91992 -50.21875 curveto
285.30533 -50.21875 284.83658 -50.463543 284.51367 -50.953125 curveto
284.19077 -51.442707 284.0293 -52.161457 284.0293 -53.109375 curveto
284.0293 -54.057293 284.19077 -54.778645 284.51367 -55.273438 curveto
284.83658 -55.76823 285.31055 -56.015625 285.93555 -56.015625 curveto
286.50845 -56.015625 286.94858 -55.765625 287.25586 -55.265625 curveto
287.56314 -54.765625 287.7168 -54.046875 287.7168 -53.109375 curveto
closepath
288.98242 -56.5 moveto
288.98242 -57.65625 288.71158 -58.53125 288.16992 -59.125 curveto
287.62827 -59.71875 286.8314 -60.015625 285.7793 -60.015625 curveto
285.42514 -60.015625 285.06055 -59.98177 284.68555 -59.914062 curveto
284.31055 -59.846355 283.93555 -59.75 283.56055 -59.625 curveto
283.56055 -58.390625 lineto
283.99805 -58.598957 284.39908 -58.752605 284.76367 -58.851562 curveto
285.12827 -58.95052 285.4668 -59.0 285.7793 -59.0 curveto
286.4564 -59.0 286.94858 -58.815105 287.25586 -58.445312 curveto
287.56314 -58.07552 287.7168 -57.489582 287.7168 -56.6875 curveto
287.7168 -56.640625 lineto
287.7168 -55.78125 lineto
287.5189 -56.208332 287.24805 -56.528645 286.9043 -56.742188 curveto
286.56055 -56.95573 286.13867 -57.0625 285.63867 -57.0625 curveto
284.74283 -57.0625 284.0293 -56.703125 283.49805 -55.984375 curveto
282.9668 -55.265625 282.70117 -54.307293 282.70117 -53.109375 curveto
282.70117 -51.911457 282.9668 -50.953125 283.49805 -50.234375 curveto
284.0293 -49.515625 284.74283 -49.15625 285.63867 -49.15625 curveto
286.12827 -49.15625 286.54492 -49.255207 286.88867 -49.453125 curveto
287.23242 -49.651043 287.50845 -49.953125 287.7168 -50.359375 curveto
287.7168 -49.375 lineto
288.98242 -49.375 lineto
288.98242 -56.5 lineto
closepath
292.03613 -49.34375 moveto
295.25488 -49.34375 lineto
295.25488 -56.015625 lineto
297.75488 -56.015625 lineto
297.75488 -57.0 lineto
291.50488 -57.0 lineto
291.50488 -56.015625 lineto
294.00488 -56.015625 lineto
294.00488 -50.328125 lineto
292.03613 -50.328125 lineto
292.03613 -49.34375 lineto
closepath
294.00488 -46.359375 moveto
295.25488 -46.359375 lineto
295.25488 -47.953125 lineto
294.00488 -47.953125 lineto
294.00488 -46.359375 lineto
closepath
305.90234 -52.25 moveto
305.90234 -57.0 lineto
304.63672 -57.0 lineto
304.63672 -52.25 lineto
304.63672 -51.5625 304.51694 -51.057293 304.27734 -50.734375 curveto
304.03775 -50.411457 303.65756 -50.25 303.13672 -50.25 curveto
302.55338 -50.25 302.10287 -50.458332 301.78516 -50.875 curveto
301.46744 -51.291668 301.3086 -51.890625 301.3086 -52.671875 curveto
301.3086 -57.0 lineto
300.04297 -57.0 lineto
300.04297 -49.34375 lineto
301.3086 -49.34375 lineto
301.3086 -50.484375 lineto
301.52734 -50.046875 301.82944 -49.716145 302.21484 -49.492188 curveto
302.60025 -49.26823 303.05338 -49.15625 303.57422 -49.15625 curveto
304.35547 -49.15625 304.9388 -49.414062 305.32422 -49.929688 curveto
305.70963 -50.445312 305.90234 -51.21875 305.90234 -52.25 curveto
closepath
314.75293 -52.859375 moveto
314.75293 -53.46875 lineto
309.2998 -53.46875 lineto
309.2998 -53.515625 lineto
309.2998 -54.348957 309.51596 -54.992188 309.94824 -55.445312 curveto
310.38052 -55.898438 310.9977 -56.125 311.7998 -56.125 curveto
312.19565 -56.125 312.6123 -56.0625 313.0498 -55.9375 curveto
313.4873 -55.8125 313.95605 -55.619793 314.45605 -55.359375 curveto
314.45605 -56.609375 lineto
313.9769 -56.807293 313.51334 -56.95573 313.06543 -57.054688 curveto
312.61752 -57.153645 312.19043 -57.203125 311.78418 -57.203125 curveto
310.58627 -57.203125 309.65396 -56.846355 308.9873 -56.132812 curveto
308.32065 -55.41927 307.9873 -54.432293 307.9873 -53.171875 curveto
307.9873 -51.953125 308.31543 -50.979168 308.97168 -50.25 curveto
309.62793 -49.520832 310.50293 -49.15625 311.59668 -49.15625 curveto
312.56543 -49.15625 313.33365 -49.48698 313.90137 -50.148438 curveto
314.4691 -50.809895 314.75293 -51.713543 314.75293 -52.859375 curveto
closepath
313.4873 -52.484375 moveto
313.46646 -51.744793 313.292 -51.182293 312.96387 -50.796875 curveto
312.63574 -50.411457 312.15918 -50.21875 311.53418 -50.21875 curveto
310.93002 -50.21875 310.43262 -50.41927 310.042 -50.820312 curveto
309.65137 -51.221355 309.4196 -51.78125 309.34668 -52.5 curveto
313.4873 -52.484375 lineto
closepath
fill
newpath
1.0 setlinewidth
10.0 setmiterlimit
0 setlinejoin
2 setlinecap
[ ] 0 setdash
1.0 setlinewidth
10.0 setmiterlimit
0 setlinejoin
2 setlinecap
[ ] 0 setdash
0.29803923 0.29803923 0.29803923 setrgbcolor
0.0 0.0 0.0 setrgbcolor
1.0 setlinewidth
10.0 setmiterlimit
0 setlinejoin
2 setlinecap
[ ] 0 setdash
newpath
120.0 -50.0 moveto
180.0 -50.0 lineto
stroke
newpath
newpath
180.0 -50.0 moveto
240.0 -50.0 lineto
stroke
newpath
1.0 setlinewidth
10.0 setmiterlimit
0 setlinejoin
2 setlinecap
[ ] 0 setdash
newpath
120.0 -50.0 moveto
132.0 -44.0 lineto
stroke
newpath
newpath
120.0 -50.0 moveto
132.0 -56.0 lineto
stroke
newpath
newpath
120.0 -50.0 moveto
132.0 -44.0 lineto
144.0 -50.0 lineto
132.0 -56.0 lineto
closepath
fill
newpath
1.0 setlinewidth
10.0 setmiterlimit
0 setlinejoin
2 setlinecap
[ ] 0 setdash
grestore
grestore
showpage

%%EOF