%!PS-Adobe-3.0 EPSF-3.0
%%Creator: jlibeps 0.1, https://sourceforge.net/projects/jlibeps/
%%Title: UMLet Diagram
%%CreationDate: Sun Mar 31 01:07:41 WET 2013
%%BoundingBox: 0 0 490 90
%%DocumentData: Clean7Bit
%%DocumentProcessColors: Black
%%ColorUsage: Color
%%Origin: 0 0
%%Pages: 1
%%Page: 1 1
%%EndComments

gsave
-0.0 90.0 translate
1.0 setlinewidth
10.0 setmiterlimit
0 setlinejoin
2 setlinecap
[ ] 0 setdash
gsave
newpath
0.0 -0.0 moveto
490.0 -0.0 lineto
490.0 -90.0 lineto
0.0 -90.0 lineto
0.0 -0.0 lineto
closepath
clip
newpath
1.0 1.0 1.0 setrgbcolor
newpath
0.0 -0.0 moveto
490.0 -0.0 lineto
490.0 -90.0 lineto
0.0 -90.0 lineto
0.0 -0.0 lineto
closepath
fill
newpath
1.0 setlinewidth
10.0 setmiterlimit
0 setlinejoin
2 setlinecap
[ ] 0 setdash
0.29803923 0.29803923 0.29803923 setrgbcolor
0.0 0.0 0.0 setrgbcolor
1.0 1.0 1.0 setrgbcolor
newpath
20.0 -30.0 moveto
99.0 -30.0 lineto
99.0 -59.0 lineto
20.0 -59.0 lineto
20.0 -30.0 lineto
closepath
fill
newpath
0.0 0.0 0.0 setrgbcolor
1.0 setlinewidth
10.0 setmiterlimit
0 setlinejoin
2 setlinecap
[ ] 0 setdash
newpath
20.0 -30.0 moveto
99.0 -30.0 lineto
99.0 -59.0 lineto
20.0 -59.0 lineto
20.0 -30.0 lineto
closepath
stroke
newpath
1.0 setlinewidth
10.0 setmiterlimit
0 setlinejoin
2 setlinecap
[ ] 0 setdash
0.0 0.0 0.0 setrgbcolor
newpath
47.21875 -45.84375 moveto
49.609375 -36.796875 lineto
51.046875 -36.796875 lineto
48.046875 -47.0 lineto
46.375 -47.0 lineto
43.390625 -36.796875 lineto
44.8125 -36.796875 lineto
47.21875 -45.84375 lineto
closepath
53.17871 -39.34375 moveto
56.39746 -39.34375 lineto
56.39746 -46.015625 lineto
58.89746 -46.015625 lineto
58.89746 -47.0 lineto
52.64746 -47.0 lineto
52.64746 -46.015625 lineto
55.14746 -46.015625 lineto
55.14746 -40.328125 lineto
53.17871 -40.328125 lineto
53.17871 -39.34375 lineto
closepath
55.14746 -36.359375 moveto
56.39746 -36.359375 lineto
56.39746 -37.953125 lineto
55.14746 -37.953125 lineto
55.14746 -36.359375 lineto
closepath
67.4668 -42.859375 moveto
67.4668 -43.46875 lineto
62.01367 -43.46875 lineto
62.01367 -43.515625 lineto
62.01367 -44.348957 62.229816 -44.992188 62.66211 -45.445312 curveto
63.094402 -45.898438 63.71159 -46.125 64.51367 -46.125 curveto
64.90951 -46.125 65.32617 -46.0625 65.76367 -45.9375 curveto
66.20117 -45.8125 66.66992 -45.619793 67.16992 -45.359375 curveto
67.16992 -46.609375 lineto
66.69076 -46.807293 66.22721 -46.95573 65.7793 -47.054688 curveto
65.33138 -47.153645 64.9043 -47.203125 64.49805 -47.203125 curveto
63.30013 -47.203125 62.36784 -46.846355 61.70117 -46.132812 curveto
61.034504 -45.41927 60.70117 -44.432293 60.70117 -43.171875 curveto
60.70117 -41.953125 61.029297 -40.979168 61.685547 -40.25 curveto
62.341797 -39.520832 63.216797 -39.15625 64.31055 -39.15625 curveto
65.2793 -39.15625 66.04752 -39.48698 66.615234 -40.148438 curveto
67.182945 -40.809895 67.4668 -41.713543 67.4668 -42.859375 curveto
closepath
66.20117 -42.484375 moveto
66.180336 -41.744793 66.00586 -41.182293 65.677734 -40.796875 curveto
65.34961 -40.411457 64.87305 -40.21875 64.24805 -40.21875 curveto
63.64388 -40.21875 63.146484 -40.41927 62.75586 -40.820312 curveto
62.365234 -41.221355 62.133465 -41.78125 62.060547 -42.5 curveto
66.20117 -42.484375 lineto
closepath
68.28613 -39.34375 moveto
69.53613 -39.34375 lineto
70.86426 -45.53125 lineto
71.95801 -41.578125 lineto
73.03613 -41.578125 lineto
74.14551 -45.53125 lineto
75.47363 -39.34375 lineto
76.70801 -39.34375 lineto
74.92676 -47.0 lineto
73.72363 -47.0 lineto
72.50488 -42.796875 lineto
71.28613 -47.0 lineto
70.08301 -47.0 lineto
68.28613 -39.34375 lineto
closepath
fill
newpath
1.0 setlinewidth
10.0 setmiterlimit
0 setlinejoin
2 setlinecap
[ ] 0 setdash
1.0 setlinewidth
10.0 setmiterlimit
0 setlinejoin
2 setlinecap
[ ] 0 setdash
0.29803923 0.29803923 0.29803923 setrgbcolor
0.0 0.0 0.0 setrgbcolor
1.0 1.0 1.0 setrgbcolor
newpath
370.0 -30.0 moveto
469.0 -30.0 lineto
469.0 -59.0 lineto
370.0 -59.0 lineto
370.0 -30.0 lineto
closepath
fill
newpath
0.0 0.0 0.0 setrgbcolor
1.0 setlinewidth
10.0 setmiterlimit
0 setlinejoin
2 setlinecap
[ ] 0 setdash
newpath
370.0 -30.0 moveto
469.0 -30.0 lineto
469.0 -59.0 lineto
370.0 -59.0 lineto
370.0 -30.0 lineto
closepath
stroke
newpath
1.0 setlinewidth
10.0 setmiterlimit
0 setlinejoin
2 setlinecap
[ ] 0 setdash
0.0 0.0 0.0 setrgbcolor
newpath
385.98438 -45.859375 moveto
387.14062 -45.859375 387.95053 -45.57552 388.41406 -45.007812 curveto
388.8776 -44.440105 389.10938 -43.40625 389.10938 -41.90625 curveto
389.10938 -40.395832 388.88022 -39.354168 388.42188 -38.78125 curveto
387.96353 -38.208332 387.15103 -37.921875 385.98438 -37.921875 curveto
385.32812 -37.921875 lineto
385.32812 -45.859375 lineto
385.98438 -45.859375 lineto
closepath
386.01562 -36.796875 moveto
387.56772 -36.796875 388.71353 -37.210938 389.45312 -38.039062 curveto
390.19272 -38.867188 390.5625 -40.15625 390.5625 -41.90625 curveto
390.5625 -43.645832 390.19272 -44.929688 389.45312 -45.757812 curveto
388.71353 -46.585938 387.56772 -47.0 386.01562 -47.0 curveto
383.9375 -47.0 lineto
383.9375 -36.796875 lineto
386.01562 -36.796875 lineto
closepath
396.2256 -43.15625 moveto
395.8037 -43.15625 lineto
395.07455 -43.15625 394.52505 -43.283855 394.15527 -43.539062 curveto
393.7855 -43.79427 393.6006 -44.177082 393.6006 -44.6875 curveto
393.6006 -45.145832 393.73862 -45.502605 394.01465 -45.757812 curveto
394.29068 -46.01302 394.6735 -46.140625 395.1631 -46.140625 curveto
395.861 -46.140625 396.40787 -45.901043 396.8037 -45.421875 curveto
397.19955 -44.942707 397.39746 -44.28125 397.39746 -43.4375 curveto
397.39746 -43.15625 lineto
396.2256 -43.15625 lineto
closepath
398.6631 -42.625 moveto
398.6631 -47.0 lineto
397.39746 -47.0 lineto
397.39746 -45.859375 lineto
397.13705 -46.317707 396.80112 -46.65625 396.38965 -46.875 curveto
395.97818 -47.09375 395.4808 -47.203125 394.89746 -47.203125 curveto
394.1162 -47.203125 393.4938 -46.98177 393.03027 -46.539062 curveto
392.56674 -46.096355 392.33496 -45.505207 392.33496 -44.765625 curveto
392.33496 -43.921875 392.62143 -43.278645 393.19434 -42.835938 curveto
393.76724 -42.39323 394.6058 -42.171875 395.70996 -42.171875 curveto
397.39746 -42.171875 lineto
397.39746 -41.96875 lineto
397.39746 -41.354168 397.2438 -40.908855 396.93652 -40.632812 curveto
396.62924 -40.35677 396.14224 -40.21875 395.4756 -40.21875 curveto
395.0485 -40.21875 394.6162 -40.28125 394.1787 -40.40625 curveto
393.7412 -40.53125 393.31412 -40.713543 392.89746 -40.953125 curveto
392.89746 -39.6875 lineto
393.3662 -39.510418 393.81412 -39.377605 394.2412 -39.289062 curveto
394.6683 -39.20052 395.07974 -39.15625 395.4756 -39.15625 curveto
396.111 -39.15625 396.65268 -39.25 397.1006 -39.4375 curveto
397.5485 -39.625 397.9131 -39.90625 398.19434 -40.28125 curveto
398.361 -40.510418 398.4808 -40.791668 398.5537 -41.125 curveto
398.62662 -41.458332 398.6631 -41.958332 398.6631 -42.625 curveto
closepath
404.06055 -37.171875 moveto
404.06055 -39.34375 lineto
406.91992 -39.34375 lineto
406.91992 -40.328125 lineto
404.06055 -40.328125 lineto
404.06055 -44.484375 lineto
404.06055 -45.046875 404.16733 -45.440105 404.38086 -45.664062 curveto
404.5944 -45.88802 404.9668 -46.0 405.49805 -46.0 curveto
406.91992 -46.0 lineto
406.91992 -47.0 lineto
405.37305 -47.0 lineto
404.43555 -47.0 403.77148 -46.809895 403.38086 -46.429688 curveto
402.99023 -46.04948 402.79492 -45.401043 402.79492 -44.484375 curveto
402.79492 -40.328125 lineto
400.74805 -40.328125 lineto
400.74805 -39.34375 lineto
402.79492 -39.34375 lineto
402.79492 -37.171875 lineto
404.06055 -37.171875 lineto
closepath
413.083 -43.15625 moveto
412.66113 -43.15625 lineto
411.93198 -43.15625 411.38248 -43.283855 411.0127 -43.539062 curveto
410.6429 -43.79427 410.458 -44.177082 410.458 -44.6875 curveto
410.458 -45.145832 410.59604 -45.502605 410.87207 -45.757812 curveto
411.1481 -46.01302 411.5309 -46.140625 412.0205 -46.140625 curveto
412.7184 -46.140625 413.2653 -45.901043 413.66113 -45.421875 curveto
414.05698 -44.942707 414.25488 -44.28125 414.25488 -43.4375 curveto
414.25488 -43.15625 lineto
413.083 -43.15625 lineto
closepath
415.5205 -42.625 moveto
415.5205 -47.0 lineto
414.25488 -47.0 lineto
414.25488 -45.859375 lineto
413.99448 -46.317707 413.65854 -46.65625 413.24707 -46.875 curveto
412.8356 -47.09375 412.33823 -47.203125 411.75488 -47.203125 curveto
410.97363 -47.203125 410.35123 -46.98177 409.8877 -46.539062 curveto
409.42416 -46.096355 409.19238 -45.505207 409.19238 -44.765625 curveto
409.19238 -43.921875 409.47885 -43.278645 410.05176 -42.835938 curveto
410.62466 -42.39323 411.46323 -42.171875 412.56738 -42.171875 curveto
414.25488 -42.171875 lineto
414.25488 -41.96875 lineto
414.25488 -41.354168 414.10123 -40.908855 413.79395 -40.632812 curveto
413.48666 -40.35677 412.99966 -40.21875 412.333 -40.21875 curveto
411.9059 -40.21875 411.47363 -40.28125 411.03613 -40.40625 curveto
410.59863 -40.53125 410.17154 -40.713543 409.75488 -40.953125 curveto
409.75488 -39.6875 lineto
410.22363 -39.510418 410.67154 -39.377605 411.09863 -39.289062 curveto
411.52573 -39.20052 411.93716 -39.15625 412.333 -39.15625 curveto
412.9684 -39.15625 413.5101 -39.25 413.958 -39.4375 curveto
414.4059 -39.625 414.7705 -39.90625 415.05176 -40.28125 curveto
415.2184 -40.510418 415.33823 -40.791668 415.41113 -41.125 curveto
415.48404 -41.458332 415.5205 -41.958332 415.5205 -42.625 curveto
closepath
417.3086 -36.796875 moveto
419.15234 -36.796875 lineto
420.91797 -41.984375 lineto
422.6836 -36.796875 lineto
424.54297 -36.796875 lineto
424.54297 -47.0 lineto
423.26172 -47.0 lineto
423.26172 -37.984375 lineto
421.44922 -43.359375 lineto
420.40234 -43.359375 lineto
418.57422 -37.984375 lineto
418.57422 -47.0 lineto
417.3086 -47.0 lineto
417.3086 -36.796875 lineto
closepath
429.3623 -40.21875 moveto
428.71646 -40.21875 428.2295 -40.46875 427.90137 -40.96875 curveto
427.57324 -41.46875 427.40918 -42.203125 427.40918 -43.171875 curveto
427.40918 -44.151043 427.57324 -44.88802 427.90137 -45.382812 curveto
428.2295 -45.877605 428.71646 -46.125 429.3623 -46.125 curveto
429.9977 -46.125 430.4795 -45.877605 430.80762 -45.382812 curveto
431.13574 -44.88802 431.2998 -44.151043 431.2998 -43.171875 curveto
431.2998 -42.203125 431.13574 -41.46875 430.80762 -40.96875 curveto
430.4795 -40.46875 429.9977 -40.21875 429.3623 -40.21875 curveto
closepath
429.3623 -39.15625 moveto
430.4144 -39.15625 431.22427 -39.5 431.792 -40.1875 curveto
432.3597 -40.875 432.64355 -41.869793 432.64355 -43.171875 curveto
432.64355 -44.484375 432.3623 -45.484375 431.7998 -46.171875 curveto
431.2373 -46.859375 430.4248 -47.203125 429.3623 -47.203125 curveto
428.2998 -47.203125 427.4873 -46.859375 426.9248 -46.171875 curveto
426.3623 -45.484375 426.08105 -44.484375 426.08105 -43.171875 curveto
426.08105 -41.869793 426.3623 -40.875 426.9248 -40.1875 curveto
427.4873 -39.5 428.2998 -39.15625 429.3623 -39.15625 curveto
closepath
439.43164 -40.328125 moveto
439.43164 -36.359375 lineto
440.69727 -36.359375 lineto
440.69727 -47.0 lineto
439.43164 -47.0 lineto
439.43164 -46.03125 lineto
439.2233 -46.416668 438.94467 -46.708332 438.5957 -46.90625 curveto
438.24673 -47.104168 437.8483 -47.203125 437.4004 -47.203125 curveto
436.4733 -47.203125 435.74414 -46.84375 435.2129 -46.125 curveto
434.68164 -45.40625 434.41602 -44.416668 434.41602 -43.15625 curveto
434.41602 -41.90625 434.68164 -40.927082 435.2129 -40.21875 curveto
435.74414 -39.510418 436.4733 -39.15625 437.4004 -39.15625 curveto
437.85873 -39.15625 438.26236 -39.255207 438.61133 -39.453125 curveto
438.9603 -39.651043 439.23373 -39.942707 439.43164 -40.328125 curveto
closepath
435.74414 -43.171875 moveto
435.74414 -44.151043 435.8978 -44.88802 436.20508 -45.382812 curveto
436.51236 -45.877605 436.9681 -46.125 437.57227 -46.125 curveto
438.18686 -46.125 438.6504 -45.875 438.9629 -45.375 curveto
439.2754 -44.875 439.43164 -44.140625 439.43164 -43.171875 curveto
439.43164 -42.203125 439.2754 -41.46875 438.9629 -40.96875 curveto
438.6504 -40.46875 438.18686 -40.21875 437.57227 -40.21875 curveto
436.9681 -40.21875 436.51236 -40.46875 436.20508 -40.96875 curveto
435.8978 -41.46875 435.74414 -42.203125 435.74414 -43.171875 curveto
closepath
449.61035 -42.859375 moveto
449.61035 -43.46875 lineto
444.15723 -43.46875 lineto
444.15723 -43.515625 lineto
444.15723 -44.348957 444.37338 -44.992188 444.80566 -45.445312 curveto
445.23795 -45.898438 445.85513 -46.125 446.65723 -46.125 curveto
447.05307 -46.125 447.46973 -46.0625 447.90723 -45.9375 curveto
448.34473 -45.8125 448.81348 -45.619793 449.31348 -45.359375 curveto
449.31348 -46.609375 lineto
448.83432 -46.807293 448.37076 -46.95573 447.92285 -47.054688 curveto
447.47495 -47.153645 447.04785 -47.203125 446.6416 -47.203125 curveto
445.4437 -47.203125 444.51138 -46.846355 443.84473 -46.132812 curveto
443.17807 -45.41927 442.84473 -44.432293 442.84473 -43.171875 curveto
442.84473 -41.953125 443.17285 -40.979168 443.8291 -40.25 curveto
444.48535 -39.520832 445.36035 -39.15625 446.4541 -39.15625 curveto
447.42285 -39.15625 448.19107 -39.48698 448.7588 -40.148438 curveto
449.3265 -40.809895 449.61035 -41.713543 449.61035 -42.859375 curveto
closepath
448.34473 -42.484375 moveto
448.32388 -41.744793 448.1494 -41.182293 447.8213 -40.796875 curveto
447.49316 -40.411457 447.0166 -40.21875 446.3916 -40.21875 curveto
445.78745 -40.21875 445.29004 -40.41927 444.8994 -40.820312 curveto
444.5088 -41.221355 444.277 -41.78125 444.2041 -42.5 curveto
448.34473 -42.484375 lineto
closepath
454.8047 -44.21875 moveto
454.8047 -44.791668 454.90625 -45.221355 455.10938 -45.507812 curveto
455.3125 -45.79427 455.6172 -45.9375 456.02344 -45.9375 curveto
457.4922 -45.9375 lineto
457.4922 -47.0 lineto
455.89844 -47.0 lineto
455.14844 -47.0 454.56772 -46.757812 454.15625 -46.273438 curveto
453.74478 -45.789062 453.53906 -45.104168 453.53906 -44.21875 curveto
453.53906 -37.265625 lineto
451.52344 -37.265625 lineto
451.52344 -36.28125 lineto
454.8047 -36.28125 lineto
454.8047 -44.21875 lineto
closepath
fill
newpath
1.0 setlinewidth
10.0 setmiterlimit
0 setlinejoin
2 setlinecap
[ ] 0 setdash
1.0 setlinewidth
10.0 setmiterlimit
0 setlinejoin
2 setlinecap
[ ] 0 setdash
0.29803923 0.29803923 0.29803923 setrgbcolor
0.0 0.0 0.0 setrgbcolor
1.0 1.0 1.0 setrgbcolor
newpath
140.0 -20.0 moveto
319.0 -20.0 lineto
319.0 -69.0 lineto
140.0 -69.0 lineto
140.0 -20.0 lineto
closepath
fill
newpath
0.0 0.0 0.0 setrgbcolor
1.0 setlinewidth
10.0 setmiterlimit
0 setlinejoin
2 setlinecap
[ ] 0 setdash
newpath
140.0 -20.0 moveto
319.0 -20.0 lineto
319.0 -69.0 lineto
140.0 -69.0 lineto
140.0 -20.0 lineto
closepath
stroke
newpath
1.0 setlinewidth
10.0 setmiterlimit
0 setlinejoin
2 setlinecap
[ ] 0 setdash
0.0 0.0 0.0 setrgbcolor
newpath
180.01562 -29.765625 moveto
180.01562 -31.0625 lineto
177.96875 -32.890625 lineto
180.01562 -34.734375 lineto
180.01562 -36.03125 lineto
176.8125 -33.171875 lineto
176.8125 -32.625 lineto
180.01562 -29.765625 lineto
closepath
183.125 -29.765625 moveto
183.125 -31.0625 lineto
181.0625 -32.890625 lineto
183.125 -34.734375 lineto
183.125 -36.03125 lineto
179.92188 -33.171875 lineto
179.92188 -32.625 lineto
183.125 -29.765625 lineto
closepath
194.60742 -29.34375 moveto
197.82617 -29.34375 lineto
197.82617 -36.015625 lineto
200.32617 -36.015625 lineto
200.32617 -37.0 lineto
194.07617 -37.0 lineto
194.07617 -36.015625 lineto
196.57617 -36.015625 lineto
196.57617 -30.328125 lineto
194.60742 -30.328125 lineto
194.60742 -29.34375 lineto
closepath
196.57617 -26.359375 moveto
197.82617 -26.359375 lineto
197.82617 -27.953125 lineto
196.57617 -27.953125 lineto
196.57617 -26.359375 lineto
closepath
208.47363 -32.25 moveto
208.47363 -37.0 lineto
207.20801 -37.0 lineto
207.20801 -32.25 lineto
207.20801 -31.5625 207.08821 -31.057291 206.84863 -30.734375 curveto
206.60905 -30.411459 206.22884 -30.25 205.70801 -30.25 curveto
205.12468 -30.25 204.67415 -30.458334 204.35645 -30.875 curveto
204.03874 -31.291666 203.87988 -31.890625 203.87988 -32.671875 curveto
203.87988 -37.0 lineto
202.61426 -37.0 lineto
202.61426 -29.34375 lineto
203.87988 -29.34375 lineto
203.87988 -30.484375 lineto
204.09863 -30.046875 204.40071 -29.716146 204.78613 -29.492188 curveto
205.17155 -29.268229 205.62468 -29.15625 206.14551 -29.15625 curveto
206.92676 -29.15625 207.51009 -29.414062 207.89551 -29.929688 curveto
208.28093 -30.445312 208.47363 -31.21875 208.47363 -32.25 curveto
closepath
213.91797 -27.171875 moveto
213.91797 -29.34375 lineto
216.77734 -29.34375 lineto
216.77734 -30.328125 lineto
213.91797 -30.328125 lineto
213.91797 -34.484375 lineto
213.91797 -35.046875 214.02473 -35.440105 214.23828 -35.664062 curveto
214.45183 -35.88802 214.82422 -36.0 215.35547 -36.0 curveto
216.77734 -36.0 lineto
216.77734 -37.0 lineto
215.23047 -37.0 lineto
214.29297 -37.0 213.6289 -36.809895 213.23828 -36.429688 curveto
212.84766 -36.04948 212.65234 -35.401043 212.65234 -34.484375 curveto
212.65234 -30.328125 lineto
210.60547 -30.328125 lineto
210.60547 -29.34375 lineto
212.65234 -29.34375 lineto
212.65234 -27.171875 lineto
213.91797 -27.171875 lineto
closepath
225.75293 -32.859375 moveto
225.75293 -33.46875 lineto
220.2998 -33.46875 lineto
220.2998 -33.515625 lineto
220.2998 -34.348957 220.51595 -34.992188 220.94824 -35.445312 curveto
221.38054 -35.898438 221.99773 -36.125 222.7998 -36.125 curveto
223.19563 -36.125 223.6123 -36.0625 224.0498 -35.9375 curveto
224.4873 -35.8125 224.95605 -35.619793 225.45605 -35.359375 curveto
225.45605 -36.609375 lineto
224.97688 -36.807293 224.51335 -36.95573 224.06543 -37.054688 curveto
223.61751 -37.153645 223.19043 -37.203125 222.78418 -37.203125 curveto
221.58626 -37.203125 220.65398 -36.846355 219.9873 -36.132812 curveto
219.32063 -35.41927 218.9873 -34.432293 218.9873 -33.171875 curveto
218.9873 -31.953125 219.31543 -30.979166 219.97168 -30.25 curveto
220.62793 -29.520834 221.50293 -29.15625 222.59668 -29.15625 curveto
223.56543 -29.15625 224.33366 -29.486979 224.90137 -30.148438 curveto
225.46907 -30.809896 225.75293 -31.713541 225.75293 -32.859375 curveto
closepath
224.4873 -32.484375 moveto
224.46648 -31.744791 224.29199 -31.182291 223.96387 -30.796875 curveto
223.63574 -30.411459 223.15918 -30.21875 222.53418 -30.21875 curveto
221.93001 -30.21875 221.43262 -30.419271 221.04199 -30.820312 curveto
220.65137 -31.221354 220.4196 -31.78125 220.34668 -32.5 curveto
224.4873 -32.484375 lineto
closepath
234.46289 -30.921875 moveto
234.20247 -30.713541 233.93164 -30.5625 233.65039 -30.46875 curveto
233.36914 -30.375 233.06184 -30.328125 232.72852 -30.328125 curveto
231.94727 -30.328125 231.34831 -30.572916 230.93164 -31.0625 curveto
230.51497 -31.552084 230.30664 -32.260418 230.30664 -33.1875 curveto
230.30664 -37.0 lineto
229.04102 -37.0 lineto
229.04102 -29.34375 lineto
230.30664 -29.34375 lineto
230.30664 -30.84375 lineto
230.51497 -30.302084 230.83789 -29.885416 231.27539 -29.59375 curveto
231.71289 -29.302084 232.22852 -29.15625 232.82227 -29.15625 curveto
233.13477 -29.15625 233.42644 -29.195312 233.69727 -29.273438 curveto
233.9681 -29.351562 234.22331 -29.473959 234.46289 -29.640625 curveto
234.46289 -30.921875 lineto
closepath
242.2666 -26.359375 moveto
242.2666 -27.40625 lineto
240.84473 -27.40625 lineto
240.3864 -27.40625 240.07129 -27.5 239.89941 -27.6875 curveto
239.72754 -27.875 239.6416 -28.203125 239.6416 -28.671875 curveto
239.6416 -29.34375 lineto
242.2666 -29.34375 lineto
242.2666 -30.328125 lineto
239.6416 -30.328125 lineto
239.6416 -37.0 lineto
238.37598 -37.0 lineto
238.37598 -30.328125 lineto
236.3291 -30.328125 lineto
236.3291 -29.34375 lineto
238.37598 -29.34375 lineto
238.37598 -28.8125 lineto
238.37598 -27.96875 238.56868 -27.348959 238.9541 -26.953125 curveto
239.33952 -26.557291 239.93848 -26.359375 240.75098 -26.359375 curveto
242.2666 -26.359375 lineto
closepath
248.22656 -33.15625 moveto
247.80469 -33.15625 lineto
247.07552 -33.15625 246.52605 -33.283855 246.15625 -33.539062 curveto
245.78645 -33.79427 245.60156 -34.177082 245.60156 -34.6875 curveto
245.60156 -35.145832 245.73958 -35.502605 246.01562 -35.757812 curveto
246.29167 -36.01302 246.67448 -36.140625 247.16406 -36.140625 curveto
247.86198 -36.140625 248.40886 -35.901043 248.80469 -35.421875 curveto
249.20052 -34.942707 249.39844 -34.28125 249.39844 -33.4375 curveto
249.39844 -33.15625 lineto
248.22656 -33.15625 lineto
closepath
250.66406 -32.625 moveto
250.66406 -37.0 lineto
249.39844 -37.0 lineto
249.39844 -35.859375 lineto
249.13802 -36.317707 248.80208 -36.65625 248.39062 -36.875 curveto
247.97917 -37.09375 247.48177 -37.203125 246.89844 -37.203125 curveto
246.11719 -37.203125 245.4948 -36.98177 245.03125 -36.539062 curveto
244.5677 -36.096355 244.33594 -35.505207 244.33594 -34.765625 curveto
244.33594 -33.921875 244.62239 -33.278645 245.19531 -32.835938 curveto
245.76823 -32.39323 246.60677 -32.171875 247.71094 -32.171875 curveto
249.39844 -32.171875 lineto
249.39844 -31.96875 lineto
249.39844 -31.354166 249.2448 -30.908854 248.9375 -30.632812 curveto
248.6302 -30.356771 248.14323 -30.21875 247.47656 -30.21875 curveto
247.04948 -30.21875 246.61719 -30.28125 246.17969 -30.40625 curveto
245.74219 -30.53125 245.31511 -30.713541 244.89844 -30.953125 curveto
244.89844 -29.6875 lineto
245.36719 -29.510416 245.81511 -29.377604 246.24219 -29.289062 curveto
246.66927 -29.200521 247.08073 -29.15625 247.47656 -29.15625 curveto
248.11198 -29.15625 248.65364 -29.25 249.10156 -29.4375 curveto
249.54948 -29.625 249.91406 -29.90625 250.19531 -30.28125 curveto
250.36198 -30.510416 250.48177 -30.791666 250.55469 -31.125 curveto
250.62761 -31.458334 250.66406 -31.958334 250.66406 -32.625 curveto
closepath
259.1084 -36.609375 moveto
258.77505 -36.807293 258.4287 -36.95573 258.06934 -37.054688 curveto
257.70996 -37.153645 257.34277 -37.203125 256.96777 -37.203125 curveto
255.7907 -37.203125 254.86621 -36.846355 254.19434 -36.132812 curveto
253.52246 -35.41927 253.18652 -34.432293 253.18652 -33.171875 curveto
253.18652 -31.921875 253.52246 -30.940104 254.19434 -30.226562 curveto
254.86621 -29.513021 255.7907 -29.15625 256.96777 -29.15625 curveto
257.34277 -29.15625 257.70474 -29.205729 258.0537 -29.304688 curveto
258.40268 -29.403646 258.75424 -29.552084 259.1084 -29.75 curveto
259.1084 -31.0625 lineto
258.77505 -30.770834 258.44174 -30.557291 258.1084 -30.421875 curveto
257.77505 -30.286459 257.39487 -30.21875 256.96777 -30.21875 curveto
256.18652 -30.21875 255.58235 -30.473959 255.15527 -30.984375 curveto
254.7282 -31.494791 254.51465 -32.223957 254.51465 -33.171875 curveto
254.51465 -34.119793 254.7282 -34.848957 255.15527 -35.359375 curveto
255.58235 -35.869793 256.18652 -36.125 256.96777 -36.125 curveto
257.40527 -36.125 257.7985 -36.059895 258.14746 -35.929688 curveto
258.49643 -35.79948 258.81674 -35.588543 259.1084 -35.296875 curveto
259.1084 -36.609375 lineto
closepath
267.89648 -32.859375 moveto
267.89648 -33.46875 lineto
262.44336 -33.46875 lineto
262.44336 -33.515625 lineto
262.44336 -34.348957 262.65952 -34.992188 263.0918 -35.445312 curveto
263.52408 -35.898438 264.14127 -36.125 264.94336 -36.125 curveto
265.3392 -36.125 265.75586 -36.0625 266.19336 -35.9375 curveto
266.63086 -35.8125 267.0996 -35.619793 267.5996 -35.359375 curveto
267.5996 -36.609375 lineto
267.12045 -36.807293 266.6569 -36.95573 266.20898 -37.054688 curveto
265.76108 -37.153645 265.33398 -37.203125 264.92773 -37.203125 curveto
263.72983 -37.203125 262.79752 -36.846355 262.13086 -36.132812 curveto
261.4642 -35.41927 261.13086 -34.432293 261.13086 -33.171875 curveto
261.13086 -31.953125 261.45898 -30.979166 262.11523 -30.25 curveto
262.77148 -29.520834 263.64648 -29.15625 264.74023 -29.15625 curveto
265.70898 -29.15625 266.4772 -29.486979 267.04492 -30.148438 curveto
267.61264 -30.809896 267.89648 -31.713541 267.89648 -32.859375 curveto
closepath
266.63086 -32.484375 moveto
266.61002 -31.744791 266.43555 -31.182291 266.10742 -30.796875 curveto
265.7793 -30.411459 265.30273 -30.21875 264.67773 -30.21875 curveto
264.07358 -30.21875 263.57617 -30.419271 263.18555 -30.820312 curveto
262.79492 -31.221354 262.56314 -31.78125 262.49023 -32.5 curveto
266.63086 -32.484375 lineto
closepath
281.5664 -29.765625 moveto
284.76953 -32.625 lineto
284.76953 -33.171875 lineto
281.5664 -36.03125 lineto
281.5664 -34.734375 lineto
283.6289 -32.890625 lineto
281.5664 -31.0625 lineto
281.5664 -29.765625 lineto
closepath
278.45703 -29.765625 moveto
281.67578 -32.625 lineto
281.67578 -33.171875 lineto
278.45703 -36.03125 lineto
278.45703 -34.734375 lineto
280.51953 -32.890625 lineto
278.45703 -31.0625 lineto
278.45703 -29.765625 lineto
closepath
fill
newpath
0.0 0.0 0.0 setrgbcolor
newpath
163.21875 -45.015625 moveto
161.75 -50.234375 lineto
164.67188 -50.234375 lineto
163.21875 -45.015625 lineto
closepath
162.375 -43.796875 moveto
164.04688 -43.796875 lineto
167.17188 -54.0 lineto
165.75 -54.0 lineto
165.0 -51.34375 lineto
161.42188 -51.34375 lineto
160.6875 -54.0 lineto
159.25 -54.0 lineto
162.375 -43.796875 lineto
closepath
173.70996 -50.171875 moveto
173.70996 -49.203125 173.55371 -48.46875 173.24121 -47.96875 curveto
172.92871 -47.46875 172.47038 -47.21875 171.86621 -47.21875 curveto
171.25163 -47.21875 170.78809 -47.46875 170.47559 -47.96875 curveto
170.16309 -48.46875 170.00684 -49.203125 170.00684 -50.171875 curveto
170.00684 -51.140625 170.16309 -51.875 170.47559 -52.375 curveto
170.78809 -52.875 171.25163 -53.125 171.86621 -53.125 curveto
172.47038 -53.125 172.92871 -52.877605 173.24121 -52.382812 curveto
173.55371 -51.88802 173.70996 -51.151043 173.70996 -50.171875 curveto
closepath
170.00684 -47.328125 moveto
170.20476 -46.953125 170.48079 -46.664062 170.83496 -46.460938 curveto
171.18913 -46.257812 171.60059 -46.15625 172.06934 -46.15625 curveto
172.98601 -46.15625 173.70996 -46.510418 174.24121 -47.21875 curveto
174.77246 -47.927082 175.03809 -48.90625 175.03809 -50.15625 curveto
175.03809 -51.416668 174.77246 -52.40625 174.24121 -53.125 curveto
173.70996 -53.84375 172.98079 -54.203125 172.05371 -54.203125 curveto
171.59538 -54.203125 171.19173 -54.104168 170.84277 -53.90625 curveto
170.49382 -53.708332 170.21516 -53.416668 170.00684 -53.03125 curveto
170.00684 -54.0 lineto
168.74121 -54.0 lineto
168.74121 -43.359375 lineto
170.00684 -43.359375 lineto
170.00684 -47.328125 lineto
closepath
182.51367 -46.609375 moveto
182.51367 -47.84375 lineto
182.1491 -47.635418 181.7845 -47.479168 181.41992 -47.375 curveto
181.05534 -47.270832 180.68555 -47.21875 180.31055 -47.21875 curveto
179.73763 -47.21875 179.31055 -47.309895 179.0293 -47.492188 curveto
178.74805 -47.67448 178.60742 -47.953125 178.60742 -48.328125 curveto
178.60742 -48.671875 178.71419 -48.927082 178.92773 -49.09375 curveto
179.14128 -49.260418 179.66472 -49.427082 180.49805 -49.59375 curveto
180.99805 -49.6875 lineto
181.62305 -49.802082 182.097 -50.039062 182.41992 -50.398438 curveto
182.74284 -50.757812 182.9043 -51.21875 182.9043 -51.78125 curveto
182.9043 -52.541668 182.63347 -53.135418 182.0918 -53.5625 curveto
181.55013 -53.989582 180.80534 -54.203125 179.85742 -54.203125 curveto
179.472 -54.203125 179.07356 -54.161457 178.66211 -54.078125 curveto
178.25066 -53.994793 177.80013 -53.875 177.31055 -53.71875 curveto
177.31055 -52.421875 lineto
177.7793 -52.661457 178.22981 -52.841145 178.66211 -52.960938 curveto
179.0944 -53.08073 179.49805 -53.140625 179.87305 -53.140625 curveto
180.43555 -53.140625 180.86784 -53.028645 181.16992 -52.804688 curveto
181.472 -52.58073 181.62305 -52.265625 181.62305 -51.859375 curveto
181.62305 -51.276043 181.06575 -50.875 179.95117 -50.65625 curveto
179.9043 -50.640625 lineto
179.41992 -50.546875 lineto
178.70117 -50.401043 178.17513 -50.161457 177.8418 -49.828125 curveto
177.50847 -49.494793 177.3418 -49.036457 177.3418 -48.453125 curveto
177.3418 -47.723957 177.58919 -47.158855 178.08398 -46.757812 curveto
178.57878 -46.35677 179.28972 -46.15625 180.2168 -46.15625 curveto
180.62305 -46.15625 181.01628 -46.195312 181.39648 -46.273438 curveto
181.77669 -46.351562 182.1491 -46.463543 182.51367 -46.609375 curveto
closepath
188.48926 -44.171875 moveto
188.48926 -46.34375 lineto
191.34863 -46.34375 lineto
191.34863 -47.328125 lineto
188.48926 -47.328125 lineto
188.48926 -51.484375 lineto
188.48926 -52.046875 188.59602 -52.440105 188.80957 -52.664062 curveto
189.02312 -52.88802 189.39551 -53.0 189.92676 -53.0 curveto
191.34863 -53.0 lineto
191.34863 -54.0 lineto
189.80176 -54.0 lineto
188.86426 -54.0 188.2002 -53.809895 187.80957 -53.429688 curveto
187.41895 -53.04948 187.22363 -52.401043 187.22363 -51.484375 curveto
187.22363 -47.328125 lineto
185.17676 -47.328125 lineto
185.17676 -46.34375 lineto
187.22363 -46.34375 lineto
187.22363 -44.171875 lineto
188.48926 -44.171875 lineto
closepath
200.60547 -47.921875 moveto
200.34505 -47.713543 200.07422 -47.5625 199.79297 -47.46875 curveto
199.51172 -47.375 199.20442 -47.328125 198.8711 -47.328125 curveto
198.08984 -47.328125 197.49089 -47.572918 197.07422 -48.0625 curveto
196.65755 -48.552082 196.44922 -49.260418 196.44922 -50.1875 curveto
196.44922 -54.0 lineto
195.1836 -54.0 lineto
195.1836 -46.34375 lineto
196.44922 -46.34375 lineto
196.44922 -47.84375 lineto
196.65755 -47.302082 196.98047 -46.885418 197.41797 -46.59375 curveto
197.85547 -46.302082 198.3711 -46.15625 198.96484 -46.15625 curveto
199.27734 -46.15625 199.56902 -46.195312 199.83984 -46.273438 curveto
200.11067 -46.351562 200.36589 -46.473957 200.60547 -46.640625 curveto
200.60547 -47.921875 lineto
closepath
205.94043 -50.15625 moveto
205.51855 -50.15625 lineto
204.78938 -50.15625 204.23991 -50.283855 203.87012 -50.539062 curveto
203.50032 -50.79427 203.31543 -51.177082 203.31543 -51.6875 curveto
203.31543 -52.145832 203.45345 -52.502605 203.72949 -52.757812 curveto
204.00554 -53.01302 204.38835 -53.140625 204.87793 -53.140625 curveto
205.57585 -53.140625 206.12273 -52.901043 206.51855 -52.421875 curveto
206.91438 -51.942707 207.1123 -51.28125 207.1123 -50.4375 curveto
207.1123 -50.15625 lineto
205.94043 -50.15625 lineto
closepath
208.37793 -49.625 moveto
208.37793 -54.0 lineto
207.1123 -54.0 lineto
207.1123 -52.859375 lineto
206.85188 -53.317707 206.51595 -53.65625 206.10449 -53.875 curveto
205.69304 -54.09375 205.19563 -54.203125 204.6123 -54.203125 curveto
203.83105 -54.203125 203.20866 -53.98177 202.74512 -53.539062 curveto
202.28157 -53.096355 202.0498 -52.505207 202.0498 -51.765625 curveto
202.0498 -50.921875 202.33626 -50.278645 202.90918 -49.835938 curveto
203.4821 -49.39323 204.32063 -49.171875 205.4248 -49.171875 curveto
207.1123 -49.171875 lineto
207.1123 -48.96875 lineto
207.1123 -48.354168 206.95866 -47.908855 206.65137 -47.632812 curveto
206.34407 -47.35677 205.8571 -47.21875 205.19043 -47.21875 curveto
204.76335 -47.21875 204.33105 -47.28125 203.89355 -47.40625 curveto
203.45605 -47.53125 203.02898 -47.713543 202.6123 -47.953125 curveto
202.6123 -46.6875 lineto
203.08105 -46.510418 203.52898 -46.377605 203.95605 -46.289062 curveto
204.38313 -46.20052 204.7946 -46.15625 205.19043 -46.15625 curveto
205.82585 -46.15625 206.36751 -46.25 206.81543 -46.4375 curveto
207.26335 -46.625 207.62793 -46.90625 207.90918 -47.28125 curveto
208.07585 -47.510418 208.19563 -47.791668 208.26855 -48.125 curveto
208.34148 -48.458332 208.37793 -48.958332 208.37793 -49.625 curveto
closepath
216.82227 -53.609375 moveto
216.48894 -53.807293 216.14258 -53.95573 215.7832 -54.054688 curveto
215.42383 -54.153645 215.05664 -54.203125 214.68164 -54.203125 curveto
213.50456 -54.203125 212.58008 -53.846355 211.9082 -53.132812 curveto
211.23633 -52.41927 210.90039 -51.432293 210.90039 -50.171875 curveto
210.90039 -48.921875 211.23633 -47.940105 211.9082 -47.226562 curveto
212.58008 -46.51302 213.50456 -46.15625 214.68164 -46.15625 curveto
215.05664 -46.15625 215.41862 -46.20573 215.76758 -46.304688 curveto
216.11653 -46.403645 216.4681 -46.552082 216.82227 -46.75 curveto
216.82227 -48.0625 lineto
216.48894 -47.770832 216.1556 -47.557293 215.82227 -47.421875 curveto
215.48894 -47.286457 215.10872 -47.21875 214.68164 -47.21875 curveto
213.90039 -47.21875 213.29622 -47.473957 212.86914 -47.984375 curveto
212.44206 -48.494793 212.22852 -49.223957 212.22852 -50.171875 curveto
212.22852 -51.119793 212.44206 -51.848957 212.86914 -52.359375 curveto
213.29622 -52.869793 213.90039 -53.125 214.68164 -53.125 curveto
215.11914 -53.125 215.51237 -53.059895 215.86133 -52.929688 curveto
216.21028 -52.79948 216.5306 -52.588543 216.82227 -52.296875 curveto
216.82227 -53.609375 lineto
closepath
222.2041 -44.171875 moveto
222.2041 -46.34375 lineto
225.06348 -46.34375 lineto
225.06348 -47.328125 lineto
222.2041 -47.328125 lineto
222.2041 -51.484375 lineto
222.2041 -52.046875 222.31087 -52.440105 222.52441 -52.664062 curveto
222.73796 -52.88802 223.11035 -53.0 223.6416 -53.0 curveto
225.06348 -53.0 lineto
225.06348 -54.0 lineto
223.5166 -54.0 lineto
222.5791 -54.0 221.91504 -53.809895 221.52441 -53.429688 curveto
221.13379 -53.04948 220.93848 -52.401043 220.93848 -51.484375 curveto
220.93848 -47.328125 lineto
218.8916 -47.328125 lineto
218.8916 -46.34375 lineto
220.93848 -46.34375 lineto
220.93848 -44.171875 lineto
222.2041 -44.171875 lineto
closepath
229.41406 -52.859375 moveto
230.57031 -52.859375 231.3802 -52.57552 231.84375 -52.007812 curveto
232.3073 -51.440105 232.53906 -50.40625 232.53906 -48.90625 curveto
232.53906 -47.395832 232.30989 -46.354168 231.85156 -45.78125 curveto
231.39323 -45.208332 230.58073 -44.921875 229.41406 -44.921875 curveto
228.75781 -44.921875 lineto
228.75781 -52.859375 lineto
229.41406 -52.859375 lineto
closepath
229.44531 -43.796875 moveto
230.99739 -43.796875 232.14323 -44.210938 232.88281 -45.039062 curveto
233.62239 -45.867188 233.99219 -47.15625 233.99219 -48.90625 curveto
233.99219 -50.645832 233.62239 -51.929688 232.88281 -52.757812 curveto
232.14323 -53.585938 230.99739 -54.0 229.44531 -54.0 curveto
227.36719 -54.0 lineto
227.36719 -43.796875 lineto
229.44531 -43.796875 lineto
closepath
239.65527 -50.15625 moveto
239.2334 -50.15625 lineto
238.50423 -50.15625 237.95476 -50.283855 237.58496 -50.539062 curveto
237.21516 -50.79427 237.03027 -51.177082 237.03027 -51.6875 curveto
237.03027 -52.145832 237.16829 -52.502605 237.44434 -52.757812 curveto
237.72038 -53.01302 238.1032 -53.140625 238.59277 -53.140625 curveto
239.2907 -53.140625 239.83757 -52.901043 240.2334 -52.421875 curveto
240.62923 -51.942707 240.82715 -51.28125 240.82715 -50.4375 curveto
240.82715 -50.15625 lineto
239.65527 -50.15625 lineto
closepath
242.09277 -49.625 moveto
242.09277 -54.0 lineto
240.82715 -54.0 lineto
240.82715 -52.859375 lineto
240.56673 -53.317707 240.23079 -53.65625 239.81934 -53.875 curveto
239.40788 -54.09375 238.91048 -54.203125 238.32715 -54.203125 curveto
237.5459 -54.203125 236.92351 -53.98177 236.45996 -53.539062 curveto
235.99641 -53.096355 235.76465 -52.505207 235.76465 -51.765625 curveto
235.76465 -50.921875 236.0511 -50.278645 236.62402 -49.835938 curveto
237.19695 -49.39323 238.03548 -49.171875 239.13965 -49.171875 curveto
240.82715 -49.171875 lineto
240.82715 -48.96875 lineto
240.82715 -48.354168 240.67351 -47.908855 240.36621 -47.632812 curveto
240.05891 -47.35677 239.57195 -47.21875 238.90527 -47.21875 curveto
238.4782 -47.21875 238.0459 -47.28125 237.6084 -47.40625 curveto
237.1709 -47.53125 236.74382 -47.713543 236.32715 -47.953125 curveto
236.32715 -46.6875 lineto
236.7959 -46.510418 237.24382 -46.377605 237.6709 -46.289062 curveto
238.09798 -46.20052 238.50945 -46.15625 238.90527 -46.15625 curveto
239.5407 -46.15625 240.08235 -46.25 240.53027 -46.4375 curveto
240.9782 -46.625 241.34277 -46.90625 241.62402 -47.28125 curveto
241.7907 -47.510418 241.91048 -47.791668 241.9834 -48.125 curveto
242.05632 -48.458332 242.09277 -48.958332 242.09277 -49.625 curveto
closepath
247.49023 -44.171875 moveto
247.49023 -46.34375 lineto
250.34961 -46.34375 lineto
250.34961 -47.328125 lineto
247.49023 -47.328125 lineto
247.49023 -51.484375 lineto
247.49023 -52.046875 247.597 -52.440105 247.81055 -52.664062 curveto
248.0241 -52.88802 248.39648 -53.0 248.92773 -53.0 curveto
250.34961 -53.0 lineto
250.34961 -54.0 lineto
248.80273 -54.0 lineto
247.86523 -54.0 247.20117 -53.809895 246.81055 -53.429688 curveto
246.41992 -53.04948 246.22461 -52.401043 246.22461 -51.484375 curveto
246.22461 -47.328125 lineto
244.17773 -47.328125 lineto
244.17773 -46.34375 lineto
246.22461 -46.34375 lineto
246.22461 -44.171875 lineto
247.49023 -44.171875 lineto
closepath
256.5127 -50.15625 moveto
256.09082 -50.15625 lineto
255.36165 -50.15625 254.81218 -50.283855 254.44238 -50.539062 curveto
254.07259 -50.79427 253.8877 -51.177082 253.8877 -51.6875 curveto
253.8877 -52.145832 254.02571 -52.502605 254.30176 -52.757812 curveto
254.5778 -53.01302 254.96062 -53.140625 255.4502 -53.140625 curveto
256.1481 -53.140625 256.69498 -52.901043 257.09082 -52.421875 curveto
257.48666 -51.942707 257.68457 -51.28125 257.68457 -50.4375 curveto
257.68457 -50.15625 lineto
256.5127 -50.15625 lineto
closepath
258.9502 -49.625 moveto
258.9502 -54.0 lineto
257.68457 -54.0 lineto
257.68457 -52.859375 lineto
257.42416 -53.317707 257.08823 -53.65625 256.67676 -53.875 curveto
256.2653 -54.09375 255.7679 -54.203125 255.18457 -54.203125 curveto
254.40332 -54.203125 253.78093 -53.98177 253.31738 -53.539062 curveto
252.85384 -53.096355 252.62207 -52.505207 252.62207 -51.765625 curveto
252.62207 -50.921875 252.90852 -50.278645 253.48145 -49.835938 curveto
254.05437 -49.39323 254.8929 -49.171875 255.99707 -49.171875 curveto
257.68457 -49.171875 lineto
257.68457 -48.96875 lineto
257.68457 -48.354168 257.5309 -47.908855 257.22363 -47.632812 curveto
256.91635 -47.35677 256.42935 -47.21875 255.7627 -47.21875 curveto
255.33562 -47.21875 254.90332 -47.28125 254.46582 -47.40625 curveto
254.02832 -47.53125 253.60124 -47.713543 253.18457 -47.953125 curveto
253.18457 -46.6875 lineto
253.65332 -46.510418 254.10124 -46.377605 254.52832 -46.289062 curveto
254.9554 -46.20052 255.36687 -46.15625 255.7627 -46.15625 curveto
256.3981 -46.15625 256.9398 -46.25 257.3877 -46.4375 curveto
257.8356 -46.625 258.2002 -46.90625 258.48145 -47.28125 curveto
258.6481 -47.510418 258.7679 -47.791668 258.84082 -48.125 curveto
258.91373 -48.458332 258.9502 -48.958332 258.9502 -49.625 curveto
closepath
260.73828 -43.796875 moveto
262.58203 -43.796875 lineto
264.34766 -48.984375 lineto
266.11328 -43.796875 lineto
267.97266 -43.796875 lineto
267.97266 -54.0 lineto
266.6914 -54.0 lineto
266.6914 -44.984375 lineto
264.8789 -50.359375 lineto
263.83203 -50.359375 lineto
262.0039 -44.984375 lineto
262.0039 -54.0 lineto
260.73828 -54.0 lineto
260.73828 -43.796875 lineto
closepath
272.792 -47.21875 moveto
272.14615 -47.21875 271.65918 -47.46875 271.33105 -47.96875 curveto
271.00293 -48.46875 270.83887 -49.203125 270.83887 -50.171875 curveto
270.83887 -51.151043 271.00293 -51.88802 271.33105 -52.382812 curveto
271.65918 -52.877605 272.14615 -53.125 272.792 -53.125 curveto
273.4274 -53.125 273.90918 -52.877605 274.2373 -52.382812 curveto
274.56543 -51.88802 274.7295 -51.151043 274.7295 -50.171875 curveto
274.7295 -49.203125 274.56543 -48.46875 274.2373 -47.96875 curveto
273.90918 -47.46875 273.4274 -47.21875 272.792 -47.21875 curveto
closepath
272.792 -46.15625 moveto
273.8441 -46.15625 274.65396 -46.5 275.22168 -47.1875 curveto
275.7894 -47.875 276.07324 -48.869793 276.07324 -50.171875 curveto
276.07324 -51.484375 275.792 -52.484375 275.2295 -53.171875 curveto
274.667 -53.859375 273.8545 -54.203125 272.792 -54.203125 curveto
271.7295 -54.203125 270.917 -53.859375 270.3545 -53.171875 curveto
269.792 -52.484375 269.51074 -51.484375 269.51074 -50.171875 curveto
269.51074 -48.869793 269.792 -47.875 270.3545 -47.1875 curveto
270.917 -46.5 271.7295 -46.15625 272.792 -46.15625 curveto
closepath
282.86133 -47.328125 moveto
282.86133 -43.359375 lineto
284.12695 -43.359375 lineto
284.12695 -54.0 lineto
282.86133 -54.0 lineto
282.86133 -53.03125 lineto
282.65298 -53.416668 282.37436 -53.708332 282.0254 -53.90625 curveto
281.67642 -54.104168 281.27798 -54.203125 280.83008 -54.203125 curveto
279.90298 -54.203125 279.17383 -53.84375 278.64258 -53.125 curveto
278.11133 -52.40625 277.8457 -51.416668 277.8457 -50.15625 curveto
277.8457 -48.90625 278.11133 -47.927082 278.64258 -47.21875 curveto
279.17383 -46.510418 279.90298 -46.15625 280.83008 -46.15625 curveto
281.28842 -46.15625 281.69205 -46.255207 282.04102 -46.453125 curveto
282.38998 -46.651043 282.66342 -46.942707 282.86133 -47.328125 curveto
closepath
279.17383 -50.171875 moveto
279.17383 -51.151043 279.32748 -51.88802 279.63477 -52.382812 curveto
279.94205 -52.877605 280.3978 -53.125 281.00195 -53.125 curveto
281.61655 -53.125 282.08008 -52.875 282.39258 -52.375 curveto
282.70508 -51.875 282.86133 -51.140625 282.86133 -50.171875 curveto
282.86133 -49.203125 282.70508 -48.46875 282.39258 -47.96875 curveto
282.08008 -47.46875 281.61655 -47.21875 281.00195 -47.21875 curveto
280.3978 -47.21875 279.94205 -47.46875 279.63477 -47.96875 curveto
279.32748 -48.46875 279.17383 -49.203125 279.17383 -50.171875 curveto
closepath
293.04004 -49.859375 moveto
293.04004 -50.46875 lineto
287.5869 -50.46875 lineto
287.5869 -50.515625 lineto
287.5869 -51.348957 287.80307 -51.992188 288.23535 -52.445312 curveto
288.66763 -52.898438 289.28482 -53.125 290.0869 -53.125 curveto
290.48276 -53.125 290.8994 -53.0625 291.3369 -52.9375 curveto
291.7744 -52.8125 292.24316 -52.619793 292.74316 -52.359375 curveto
292.74316 -53.609375 lineto
292.264 -53.807293 291.80045 -53.95573 291.35254 -54.054688 curveto
290.90463 -54.153645 290.47754 -54.203125 290.0713 -54.203125 curveto
288.87338 -54.203125 287.94107 -53.846355 287.2744 -53.132812 curveto
286.60776 -52.41927 286.2744 -51.432293 286.2744 -50.171875 curveto
286.2744 -48.953125 286.60254 -47.979168 287.2588 -47.25 curveto
287.91504 -46.520832 288.79004 -46.15625 289.8838 -46.15625 curveto
290.85254 -46.15625 291.62076 -46.48698 292.18848 -47.148438 curveto
292.7562 -47.809895 293.04004 -48.713543 293.04004 -49.859375 curveto
closepath
291.7744 -49.484375 moveto
291.75357 -48.744793 291.5791 -48.182293 291.25098 -47.796875 curveto
290.92285 -47.411457 290.4463 -47.21875 289.8213 -47.21875 curveto
289.21713 -47.21875 288.71973 -47.41927 288.3291 -47.820312 curveto
287.93848 -48.221355 287.7067 -48.78125 287.6338 -49.5 curveto
291.7744 -49.484375 lineto
closepath
298.23438 -51.21875 moveto
298.23438 -51.791668 298.33594 -52.221355 298.53906 -52.507812 curveto
298.7422 -52.79427 299.04688 -52.9375 299.45312 -52.9375 curveto
300.92188 -52.9375 lineto
300.92188 -54.0 lineto
299.32812 -54.0 lineto
298.57812 -54.0 297.9974 -53.757812 297.58594 -53.273438 curveto
297.17447 -52.789062 296.96875 -52.104168 296.96875 -51.21875 curveto
296.96875 -44.265625 lineto
294.95312 -44.265625 lineto
294.95312 -43.28125 lineto
298.23438 -43.28125 lineto
298.23438 -51.21875 lineto
closepath
fill
newpath
1.0 setlinewidth
10.0 setmiterlimit
0 setlinejoin
2 setlinecap
[ ] 0 setdash
1.0 setlinewidth
10.0 setmiterlimit
0 setlinejoin
2 setlinecap
[ ] 0 setdash
0.29803923 0.29803923 0.29803923 setrgbcolor
0.0 0.0 0.0 setrgbcolor
1.0 setlinewidth
5.0 setmiterlimit
0 setlinejoin
0 setlinecap
[ 8.0 5.0 ] 0 setdash
newpath
320.0 -50.0 moveto
345.0 -50.0 lineto
stroke
newpath
newpath
345.0 -50.0 moveto
370.0 -50.0 lineto
stroke
newpath
1.0 setlinewidth
10.0 setmiterlimit
0 setlinejoin
2 setlinecap
[ ] 0 setdash
newpath
320.0 -50.0 moveto
332.0 -44.0 lineto
stroke
newpath
newpath
320.0 -50.0 moveto
332.0 -56.0 lineto
stroke
newpath
1.0 1.0 1.0 setrgbcolor
newpath
320.0 -50.0 moveto
332.0 -44.0 lineto
332.0 -56.0 lineto
closepath
fill
newpath
0.0 0.0 0.0 setrgbcolor
newpath
320.0 -50.0 moveto
332.0 -44.0 lineto
332.0 -56.0 lineto
closepath
stroke
newpath
1.0 setlinewidth
10.0 setmiterlimit
0 setlinejoin
2 setlinecap
[ ] 0 setdash
1.0 setlinewidth
10.0 setmiterlimit
0 setlinejoin
2 setlinecap
[ ] 0 setdash
0.29803923 0.29803923 0.29803923 setrgbcolor
0.0 0.0 0.0 setrgbcolor
1.0 setlinewidth
5.0 setmiterlimit
0 setlinejoin
0 setlinecap
[ 8.0 5.0 ] 0 setdash
newpath
140.0 -50.0 moveto
120.0 -50.0 lineto
stroke
newpath
newpath
120.0 -50.0 moveto
100.0 -50.0 lineto
stroke
newpath
1.0 setlinewidth
10.0 setmiterlimit
0 setlinejoin
2 setlinecap
[ ] 0 setdash
newpath
139.0 -50.0 moveto
127.0 -56.0 lineto
stroke
newpath
newpath
139.0 -50.0 moveto
127.0 -44.0 lineto
stroke
newpath
1.0 setlinewidth
10.0 setmiterlimit
0 setlinejoin
2 setlinecap
[ ] 0 setdash
grestore
grestore
showpage

%%EOF