%!PS-Adobe-3.0 EPSF-3.0
%%Creator: jlibeps 0.1, https://sourceforge.net/projects/jlibeps/
%%Title: UMLet Diagram
%%CreationDate: Mon Apr 01 03:04:19 WET 2013
%%BoundingBox: 0 0 430 370
%%DocumentData: Clean7Bit
%%DocumentProcessColors: Black
%%ColorUsage: Color
%%Origin: 0 0
%%Pages: 1
%%Page: 1 1
%%EndComments

gsave
-0.0 370.0 translate
1.0 setlinewidth
10.0 setmiterlimit
0 setlinejoin
2 setlinecap
[ ] 0 setdash
gsave
newpath
0.0 -0.0 moveto
430.0 -0.0 lineto
430.0 -370.0 lineto
0.0 -370.0 lineto
0.0 -0.0 lineto
closepath
clip
newpath
1.0 1.0 1.0 setrgbcolor
newpath
0.0 -0.0 moveto
430.0 -0.0 lineto
430.0 -370.0 lineto
0.0 -370.0 lineto
0.0 -0.0 lineto
closepath
fill
newpath
1.0 setlinewidth
10.0 setmiterlimit
0 setlinejoin
2 setlinecap
[ ] 0 setdash
0.29803923 0.29803923 0.29803923 setrgbcolor
0.0 0.0 0.0 setrgbcolor
1.0 1.0 1.0 setrgbcolor
newpath
30.0 -20.0 moveto
70.0 -20.0 lineto
70.0 -40.0 lineto
30.0 -40.0 lineto
30.0 -20.0 lineto
closepath
fill
newpath
newpath
30.0 -40.0 moveto
129.0 -40.0 lineto
129.0 -89.0 lineto
30.0 -89.0 lineto
30.0 -40.0 lineto
closepath
fill
newpath
0.0 0.0 0.0 setrgbcolor
newpath
30.0 -20.0 moveto
70.0 -20.0 lineto
70.0 -40.0 lineto
30.0 -40.0 lineto
30.0 -20.0 lineto
closepath
stroke
newpath
newpath
30.0 -40.0 moveto
129.0 -40.0 lineto
129.0 -89.0 lineto
30.0 -89.0 lineto
30.0 -40.0 lineto
closepath
stroke
newpath
newpath
74.921875 -59.140625 moveto
74.921875 -60.546875 lineto
74.50521 -60.276043 74.08594 -60.072918 73.66406 -59.9375 curveto
73.24219 -59.802082 72.8125 -59.734375 72.375 -59.734375 curveto
71.729164 -59.734375 71.21615 -59.885418 70.83594 -60.1875 curveto
70.45573 -60.489582 70.265625 -60.895832 70.265625 -61.40625 curveto
70.265625 -61.864582 70.390625 -62.210938 70.640625 -62.445312 curveto
70.890625 -62.679688 71.354164 -62.875 72.03125 -63.03125 curveto
72.765625 -63.203125 lineto
73.71354 -63.421875 74.40625 -63.770832 74.84375 -64.25 curveto
75.28125 -64.729164 75.5 -65.38021 75.5 -66.203125 curveto
75.5 -67.18229 75.20052 -67.927086 74.60156 -68.4375 curveto
74.0026 -68.947914 73.13021 -69.203125 71.984375 -69.203125 curveto
71.50521 -69.203125 71.02344 -69.15104 70.53906 -69.046875 curveto
70.05469 -68.94271 69.56771 -68.78646 69.078125 -68.578125 curveto
69.078125 -67.109375 lineto
69.59896 -67.44271 70.09375 -67.6875 70.5625 -67.84375 curveto
71.03125 -68.0 71.50521 -68.078125 71.984375 -68.078125 curveto
72.68229 -68.078125 73.22396 -67.921875 73.609375 -67.609375 curveto
73.99479 -67.296875 74.1875 -66.859375 74.1875 -66.296875 curveto
74.1875 -65.78646 74.05469 -65.39844 73.78906 -65.13281 curveto
73.52344 -64.86719 73.05729 -64.66146 72.390625 -64.515625 curveto
71.65625 -64.34375 lineto
70.708336 -64.125 70.020836 -63.79948 69.59375 -63.367188 curveto
69.166664 -62.934895 68.953125 -62.354168 68.953125 -61.625 curveto
68.953125 -60.708332 69.260414 -59.976562 69.875 -59.429688 curveto
70.489586 -58.882812 71.302086 -58.609375 72.3125 -58.609375 curveto
72.708336 -58.609375 73.1224 -58.653645 73.55469 -58.742188 curveto
73.98698 -58.83073 74.44271 -58.963543 74.921875 -59.140625 curveto
closepath
78.694336 -65.203125 moveto
78.694336 -66.18229 78.847984 -66.91927 79.15527 -67.41406 curveto
79.46256 -67.90885 79.9235 -68.15625 80.538086 -68.15625 curveto
81.14225 -68.15625 81.600586 -67.90625 81.913086 -67.40625 curveto
82.225586 -66.90625 82.381836 -66.171875 82.381836 -65.203125 curveto
82.381836 -64.234375 82.225586 -63.5 81.913086 -63.0 curveto
81.600586 -62.5 81.14225 -62.25 80.538086 -62.25 curveto
79.9235 -62.25 79.46256 -62.5 79.15527 -63.0 curveto
78.847984 -63.5 78.694336 -64.234375 78.694336 -65.203125 curveto
closepath
82.381836 -68.046875 moveto
82.1735 -68.421875 81.89486 -68.71094 81.5459 -68.91406 curveto
81.19694 -69.11719 80.7933 -69.21875 80.33496 -69.21875 curveto
79.4183 -69.21875 78.694336 -68.864586 78.163086 -68.15625 curveto
77.631836 -67.447914 77.36621 -66.47396 77.36621 -65.234375 curveto
77.36621 -63.963543 77.629234 -62.971355 78.15527 -62.257812 curveto
78.68131 -61.54427 79.407875 -61.1875 80.33496 -61.1875 curveto
80.7933 -61.1875 81.19694 -61.286457 81.5459 -61.484375 curveto
81.89486 -61.682293 82.1735 -61.96875 82.381836 -62.34375 curveto
82.381836 -61.375 lineto
83.64746 -61.375 lineto
83.64746 -71.9375 lineto
82.381836 -71.9375 lineto
82.381836 -68.046875 lineto
closepath
89.23242 -66.21875 moveto
89.23242 -66.791664 89.333984 -67.22135 89.53711 -67.50781 curveto
89.740234 -67.79427 90.04492 -67.9375 90.45117 -67.9375 curveto
91.91992 -67.9375 lineto
91.91992 -69.0 lineto
90.32617 -69.0 lineto
89.57617 -69.0 88.995445 -68.75781 88.583984 -68.27344 curveto
88.17252 -67.78906 87.9668 -67.104164 87.9668 -66.21875 curveto
87.9668 -59.265625 lineto
85.95117 -59.265625 lineto
85.95117 -58.28125 lineto
89.23242 -58.28125 lineto
89.23242 -66.21875 lineto
closepath
fill
newpath
1.0 setlinewidth
10.0 setmiterlimit
0 setlinejoin
2 setlinecap
[ ] 0 setdash
1.0 setlinewidth
10.0 setmiterlimit
0 setlinejoin
2 setlinecap
[ ] 0 setdash
0.29803923 0.29803923 0.29803923 setrgbcolor
0.0 0.0 0.0 setrgbcolor
1.0 1.0 1.0 setrgbcolor
newpath
180.0 -130.0 moveto
220.0 -130.0 lineto
220.0 -150.0 lineto
180.0 -150.0 lineto
180.0 -130.0 lineto
closepath
fill
newpath
newpath
180.0 -150.0 moveto
279.0 -150.0 lineto
279.0 -199.0 lineto
180.0 -199.0 lineto
180.0 -150.0 lineto
closepath
fill
newpath
0.0 0.0 0.0 setrgbcolor
newpath
180.0 -130.0 moveto
220.0 -130.0 lineto
220.0 -150.0 lineto
180.0 -150.0 lineto
180.0 -130.0 lineto
closepath
stroke
newpath
newpath
180.0 -150.0 moveto
279.0 -150.0 lineto
279.0 -199.0 lineto
180.0 -199.0 lineto
180.0 -150.0 lineto
closepath
stroke
newpath
newpath
208.54688 -178.15625 moveto
208.1823 -178.5 207.76823 -178.76042 207.30469 -178.9375 curveto
206.84114 -179.11458 206.33855 -179.20312 205.79688 -179.20312 curveto
204.5052 -179.20312 203.5 -178.73958 202.78125 -177.8125 curveto
202.0625 -176.88542 201.70312 -175.58333 201.70312 -173.90625 curveto
201.70312 -172.23958 202.0677 -170.94011 202.79688 -170.00781 curveto
203.52605 -169.07552 204.53645 -168.60938 205.82812 -168.60938 curveto
206.2552 -168.60938 206.66667 -168.66927 207.0625 -168.78906 curveto
207.45833 -168.90886 207.83855 -169.09375 208.20312 -169.34375 curveto
208.20312 -170.75 lineto
207.82812 -170.40625 207.44792 -170.15105 207.0625 -169.98438 curveto
206.67708 -169.8177 206.26562 -169.73438 205.82812 -169.73438 curveto
204.9323 -169.73438 204.26042 -170.08073 203.8125 -170.77344 curveto
203.36458 -171.46614 203.14062 -172.51042 203.14062 -173.90625 curveto
203.14062 -175.32292 203.35938 -176.37239 203.79688 -177.05469 curveto
204.23438 -177.73698 204.90105 -178.07812 205.79688 -178.07812 curveto
206.09895 -178.07812 206.36719 -178.04167 206.60156 -177.96875 curveto
206.83594 -177.89583 207.04688 -177.78645 207.23438 -177.64062 curveto
207.23438 -174.89062 lineto
205.75 -174.89062 lineto
205.75 -173.76562 lineto
208.54688 -173.76562 lineto
208.54688 -178.15625 lineto
closepath
217.31934 -172.92188 moveto
217.05891 -172.71355 216.78809 -172.5625 216.50684 -172.46875 curveto
216.22559 -172.375 215.91829 -172.32812 215.58496 -172.32812 curveto
214.80371 -172.32812 214.20476 -172.57292 213.78809 -173.0625 curveto
213.37141 -173.55208 213.16309 -174.26042 213.16309 -175.1875 curveto
213.16309 -179.0 lineto
211.89746 -179.0 lineto
211.89746 -171.34375 lineto
213.16309 -171.34375 lineto
213.16309 -172.84375 lineto
213.37141 -172.30208 213.69434 -171.88542 214.13184 -171.59375 curveto
214.56934 -171.30208 215.08496 -171.15625 215.67871 -171.15625 curveto
215.99121 -171.15625 216.28288 -171.19531 216.55371 -171.27344 curveto
216.82454 -171.35156 217.07976 -171.47395 217.31934 -171.64062 curveto
217.31934 -172.92188 lineto
closepath
222.6543 -175.15625 moveto
222.23242 -175.15625 lineto
221.50325 -175.15625 220.95378 -175.28386 220.58398 -175.53906 curveto
220.21419 -175.79427 220.0293 -176.17708 220.0293 -176.6875 curveto
220.0293 -177.14583 220.16731 -177.50261 220.44336 -177.75781 curveto
220.7194 -178.01302 221.10222 -178.14062 221.5918 -178.14062 curveto
222.28972 -178.14062 222.8366 -177.90105 223.23242 -177.42188 curveto
223.62825 -176.9427 223.82617 -176.28125 223.82617 -175.4375 curveto
223.82617 -175.15625 lineto
222.6543 -175.15625 lineto
closepath
225.0918 -174.625 moveto
225.0918 -179.0 lineto
223.82617 -179.0 lineto
223.82617 -177.85938 lineto
223.56575 -178.3177 223.22981 -178.65625 222.81836 -178.875 curveto
222.4069 -179.09375 221.9095 -179.20312 221.32617 -179.20312 curveto
220.54492 -179.20312 219.92253 -178.98177 219.45898 -178.53906 curveto
218.99544 -178.09636 218.76367 -177.5052 218.76367 -176.76562 curveto
218.76367 -175.92188 219.05013 -175.27864 219.62305 -174.83594 curveto
220.19597 -174.39323 221.0345 -174.17188 222.13867 -174.17188 curveto
223.82617 -174.17188 lineto
223.82617 -173.96875 lineto
223.82617 -173.35417 223.67253 -172.90886 223.36523 -172.63281 curveto
223.05794 -172.35677 222.57097 -172.21875 221.9043 -172.21875 curveto
221.47722 -172.21875 221.04492 -172.28125 220.60742 -172.40625 curveto
220.16992 -172.53125 219.74284 -172.71355 219.32617 -172.95312 curveto
219.32617 -171.6875 lineto
219.79492 -171.51042 220.24284 -171.37761 220.66992 -171.28906 curveto
221.097 -171.20052 221.50847 -171.15625 221.9043 -171.15625 curveto
222.53972 -171.15625 223.08138 -171.25 223.5293 -171.4375 curveto
223.97722 -171.625 224.3418 -171.90625 224.62305 -172.28125 curveto
224.78972 -172.51042 224.9095 -172.79167 224.98242 -173.125 curveto
225.05534 -173.45833 225.0918 -173.95833 225.0918 -174.625 curveto
closepath
228.84863 -178.03125 moveto
228.84863 -181.90625 lineto
227.58301 -181.90625 lineto
227.58301 -171.34375 lineto
228.84863 -171.34375 lineto
228.84863 -172.32812 lineto
229.05696 -171.9427 229.33562 -171.65105 229.68457 -171.45312 curveto
230.03352 -171.2552 230.43718 -171.15625 230.89551 -171.15625 curveto
231.82259 -171.15625 232.54915 -171.51562 233.0752 -172.23438 curveto
233.60124 -172.95312 233.86426 -173.9427 233.86426 -175.20312 curveto
233.86426 -176.45312 233.59863 -177.4323 233.06738 -178.14062 curveto
232.53613 -178.84895 231.81218 -179.20312 230.89551 -179.20312 curveto
230.42676 -179.20312 230.0179 -179.10417 229.66895 -178.90625 curveto
229.31999 -178.70833 229.04655 -178.41667 228.84863 -178.03125 curveto
closepath
232.53613 -175.17188 moveto
232.53613 -174.20312 232.38249 -173.46875 232.0752 -172.96875 curveto
231.7679 -172.46875 231.31218 -172.21875 230.70801 -172.21875 curveto
230.09343 -172.21875 229.62988 -172.46875 229.31738 -172.96875 curveto
229.00488 -173.46875 228.84863 -174.20312 228.84863 -175.17188 curveto
228.84863 -176.14062 229.00488 -176.875 229.31738 -177.375 curveto
229.62988 -177.875 230.09343 -178.125 230.70801 -178.125 curveto
231.31218 -178.125 231.7679 -177.87761 232.0752 -177.38281 curveto
232.38249 -176.88802 232.53613 -176.15105 232.53613 -175.17188 curveto
closepath
241.90234 -174.25 moveto
241.90234 -179.0 lineto
240.63672 -179.0 lineto
240.63672 -174.25 lineto
240.63672 -173.5625 240.51692 -173.0573 240.27734 -172.73438 curveto
240.03777 -172.41145 239.65755 -172.25 239.13672 -172.25 curveto
238.55339 -172.25 238.10286 -172.45833 237.78516 -172.875 curveto
237.46745 -173.29167 237.3086 -173.89062 237.3086 -174.67188 curveto
237.3086 -179.0 lineto
236.04297 -179.0 lineto
236.04297 -168.35938 lineto
237.3086 -168.35938 lineto
237.3086 -172.48438 lineto
237.52734 -172.04688 237.82942 -171.71614 238.21484 -171.49219 curveto
238.60027 -171.26823 239.05339 -171.15625 239.57422 -171.15625 curveto
240.35547 -171.15625 240.9388 -171.41406 241.32422 -171.92969 curveto
241.70964 -172.44531 241.90234 -173.21875 241.90234 -174.25 curveto
closepath
244.89355 -171.34375 moveto
248.1123 -171.34375 lineto
248.1123 -178.01562 lineto
250.6123 -178.01562 lineto
250.6123 -179.0 lineto
244.3623 -179.0 lineto
244.3623 -178.01562 lineto
246.8623 -178.01562 lineto
246.8623 -172.32812 lineto
244.89355 -172.32812 lineto
244.89355 -171.34375 lineto
closepath
246.8623 -168.35938 moveto
248.1123 -168.35938 lineto
248.1123 -169.95312 lineto
246.8623 -169.95312 lineto
246.8623 -168.35938 lineto
closepath
258.82227 -178.60938 moveto
258.48892 -178.8073 258.14258 -178.95573 257.7832 -179.05469 curveto
257.42383 -179.15364 257.05664 -179.20312 256.68164 -179.20312 curveto
255.50456 -179.20312 254.58008 -178.84636 253.9082 -178.13281 curveto
253.23633 -177.41927 252.90039 -176.4323 252.90039 -175.17188 curveto
252.90039 -173.92188 253.23633 -172.94011 253.9082 -172.22656 curveto
254.58008 -171.51302 255.50456 -171.15625 256.68164 -171.15625 curveto
257.05664 -171.15625 257.4186 -171.20573 257.76758 -171.30469 curveto
258.11655 -171.40364 258.4681 -171.55208 258.82227 -171.75 curveto
258.82227 -173.0625 lineto
258.48892 -172.77083 258.1556 -172.5573 257.82227 -172.42188 curveto
257.48892 -172.28645 257.10873 -172.21875 256.68164 -172.21875 curveto
255.90039 -172.21875 255.29622 -172.47395 254.86914 -172.98438 curveto
254.44206 -173.4948 254.22852 -174.22395 254.22852 -175.17188 curveto
254.22852 -176.1198 254.44206 -176.84895 254.86914 -177.35938 curveto
255.29622 -177.8698 255.90039 -178.125 256.68164 -178.125 curveto
257.11914 -178.125 257.51236 -178.05989 257.86133 -177.92969 curveto
258.2103 -177.79948 258.5306 -177.58855 258.82227 -177.29688 curveto
258.82227 -178.60938 lineto
closepath
fill
newpath
1.0 setlinewidth
10.0 setmiterlimit
0 setlinejoin
2 setlinecap
[ ] 0 setdash
1.0 setlinewidth
10.0 setmiterlimit
0 setlinejoin
2 setlinecap
[ ] 0 setdash
0.29803923 0.29803923 0.29803923 setrgbcolor
0.0 0.0 0.0 setrgbcolor
1.0 1.0 1.0 setrgbcolor
newpath
300.0 -260.0 moveto
344.0 -260.0 lineto
344.0 -280.0 lineto
300.0 -280.0 lineto
300.0 -260.0 lineto
closepath
fill
newpath
newpath
300.0 -280.0 moveto
409.0 -280.0 lineto
409.0 -349.0 lineto
300.0 -349.0 lineto
300.0 -280.0 lineto
closepath
fill
newpath
0.0 0.0 0.0 setrgbcolor
newpath
300.0 -260.0 moveto
344.0 -260.0 lineto
344.0 -280.0 lineto
300.0 -280.0 lineto
300.0 -260.0 lineto
closepath
stroke
newpath
newpath
300.0 -280.0 moveto
409.0 -280.0 lineto
409.0 -349.0 lineto
300.0 -349.0 lineto
300.0 -280.0 lineto
closepath
stroke
newpath
newpath
348.0 -315.07812 moveto
348.0 -308.79688 lineto
349.39062 -308.79688 lineto
349.39062 -315.71875 lineto
349.39062 -316.20834 349.40366 -316.5599 349.4297 -316.77344 curveto
349.45572 -316.98697 349.50522 -317.15103 349.57812 -317.26562 curveto
349.72397 -317.53647 349.9349 -317.7396 350.21094 -317.875 curveto
350.48697 -318.0104 350.8229 -318.07812 351.21875 -318.07812 curveto
351.6146 -318.07812 351.9479 -318.0104 352.21875 -317.875 curveto
352.4896 -317.7396 352.70312 -317.53647 352.85938 -317.26562 curveto
352.92188 -317.15103 352.96616 -316.9896 352.9922 -316.78125 curveto
353.01822 -316.5729 353.03125 -316.21875 353.03125 -315.71875 curveto
353.03125 -308.79688 lineto
354.42188 -308.79688 lineto
354.42188 -315.07812 lineto
354.42188 -316.11978 354.35678 -316.86197 354.22656 -317.3047 curveto
354.09634 -317.7474 353.86978 -318.10938 353.54688 -318.39062 curveto
353.24478 -318.66147 352.90103 -318.8646 352.51562 -319.0 curveto
352.13022 -319.1354 351.6979 -319.20312 351.21875 -319.20312 curveto
350.7396 -319.20312 350.3047 -319.1354 349.91406 -319.0 curveto
349.52344 -318.8646 349.1771 -318.66147 348.875 -318.39062 curveto
348.5625 -318.10938 348.33853 -317.74478 348.20312 -317.29688 curveto
348.06772 -316.84897 348.0 -316.10938 348.0 -315.07812 curveto
closepath
357.1787 -311.34375 moveto
360.39746 -311.34375 lineto
360.39746 -318.01562 lineto
362.89746 -318.01562 lineto
362.89746 -319.0 lineto
356.64746 -319.0 lineto
356.64746 -318.01562 lineto
359.14746 -318.01562 lineto
359.14746 -312.32812 lineto
357.1787 -312.32812 lineto
357.1787 -311.34375 lineto
closepath
359.14746 -308.35938 moveto
360.39746 -308.35938 lineto
360.39746 -309.95312 lineto
359.14746 -309.95312 lineto
359.14746 -308.35938 lineto
closepath
fill
newpath
1.0 setlinewidth
10.0 setmiterlimit
0 setlinejoin
2 setlinecap
[ ] 0 setdash
1.0 setlinewidth
10.0 setmiterlimit
0 setlinejoin
2 setlinecap
[ ] 0 setdash
0.29803923 0.29803923 0.29803923 setrgbcolor
0.0 0.0 0.0 setrgbcolor
1.0 1.0 1.0 setrgbcolor
newpath
40.0 -260.0 moveto
80.0 -260.0 lineto
80.0 -280.0 lineto
40.0 -280.0 lineto
40.0 -260.0 lineto
closepath
fill
newpath
newpath
40.0 -280.0 moveto
139.0 -280.0 lineto
139.0 -349.0 lineto
40.0 -349.0 lineto
40.0 -280.0 lineto
closepath
fill
newpath
0.0 0.0 0.0 setrgbcolor
newpath
40.0 -260.0 moveto
80.0 -260.0 lineto
80.0 -280.0 lineto
40.0 -280.0 lineto
40.0 -260.0 lineto
closepath
stroke
newpath
newpath
40.0 -280.0 moveto
139.0 -280.0 lineto
139.0 -349.0 lineto
40.0 -349.0 lineto
40.0 -280.0 lineto
closepath
stroke
newpath
newpath
58.34375 -308.79688 moveto
64.40625 -308.79688 lineto
64.40625 -309.95312 lineto
59.734375 -309.95312 lineto
59.734375 -312.98438 lineto
64.203125 -312.98438 lineto
64.203125 -314.14062 lineto
59.734375 -314.14062 lineto
59.734375 -317.84375 lineto
64.53125 -317.84375 lineto
64.53125 -319.0 lineto
58.34375 -319.0 lineto
58.34375 -308.79688 lineto
closepath
73.069336 -311.34375 moveto
70.33496 -315.0 lineto
73.33496 -319.0 lineto
71.881836 -319.0 lineto
69.64746 -315.9375 lineto
67.39746 -319.0 lineto
65.944336 -319.0 lineto
68.95996 -315.0 lineto
66.20996 -311.34375 lineto
67.61621 -311.34375 lineto
69.64746 -314.10938 lineto
71.663086 -311.34375 lineto
73.069336 -311.34375 lineto
closepath
76.41992 -318.03125 moveto
76.41992 -321.90625 lineto
75.1543 -321.90625 lineto
75.1543 -311.34375 lineto
76.41992 -311.34375 lineto
76.41992 -312.32812 lineto
76.62826 -311.94272 76.9069 -311.65103 77.25586 -311.45312 curveto
77.60482 -311.25522 78.00846 -311.15625 78.4668 -311.15625 curveto
79.39388 -311.15625 80.120445 -311.51562 80.646484 -312.23438 curveto
81.17252 -312.95312 81.43555 -313.94272 81.43555 -315.20312 curveto
81.43555 -316.45312 81.16992 -317.43228 80.63867 -318.14062 curveto
80.10742 -318.84897 79.38346 -319.20312 78.4668 -319.20312 curveto
77.99805 -319.20312 77.589195 -319.10416 77.240234 -318.90625 curveto
76.89127 -318.70834 76.617836 -318.41666 76.41992 -318.03125 curveto
closepath
80.10742 -315.17188 moveto
80.10742 -314.20312 79.95377 -313.46875 79.646484 -312.96875 curveto
79.339195 -312.46875 78.88346 -312.21875 78.2793 -312.21875 curveto
77.66471 -312.21875 77.20117 -312.46875 76.88867 -312.96875 curveto
76.57617 -313.46875 76.41992 -314.20312 76.41992 -315.17188 curveto
76.41992 -316.14062 76.57617 -316.875 76.88867 -317.375 curveto
77.20117 -317.875 77.66471 -318.125 78.2793 -318.125 curveto
78.88346 -318.125 79.339195 -317.8776 79.646484 -317.3828 curveto
79.95377 -316.88803 80.10742 -316.15103 80.10742 -315.17188 curveto
closepath
86.50488 -312.21875 moveto
85.85905 -312.21875 85.37207 -312.46875 85.043945 -312.96875 curveto
84.71582 -313.46875 84.55176 -314.20312 84.55176 -315.17188 curveto
84.55176 -316.15103 84.71582 -316.88803 85.043945 -317.3828 curveto
85.37207 -317.8776 85.85905 -318.125 86.50488 -318.125 curveto
87.1403 -318.125 87.62207 -317.8776 87.950195 -317.3828 curveto
88.27832 -316.88803 88.44238 -316.15103 88.44238 -315.17188 curveto
88.44238 -314.20312 88.27832 -313.46875 87.950195 -312.96875 curveto
87.62207 -312.46875 87.1403 -312.21875 86.50488 -312.21875 curveto
closepath
86.50488 -311.15625 moveto
87.55697 -311.15625 88.36686 -311.5 88.93457 -312.1875 curveto
89.50228 -312.875 89.78613 -313.86978 89.78613 -315.17188 curveto
89.78613 -316.48438 89.50488 -317.48438 88.94238 -318.17188 curveto
88.37988 -318.85938 87.56738 -319.20312 86.50488 -319.20312 curveto
85.44238 -319.20312 84.62988 -318.85938 84.06738 -318.17188 curveto
83.50488 -317.48438 83.22363 -316.48438 83.22363 -315.17188 curveto
83.22363 -313.86978 83.50488 -312.875 84.06738 -312.1875 curveto
84.62988 -311.5 85.44238 -311.15625 86.50488 -311.15625 curveto
closepath
98.60547 -312.92188 moveto
98.345055 -312.71353 98.07422 -312.5625 97.79297 -312.46875 curveto
97.51172 -312.375 97.20443 -312.32812 96.87109 -312.32812 curveto
96.08984 -312.32812 95.49088 -312.5729 95.07422 -313.0625 curveto
94.657555 -313.5521 94.44922 -314.2604 94.44922 -315.1875 curveto
94.44922 -319.0 lineto
93.18359 -319.0 lineto
93.18359 -311.34375 lineto
94.44922 -311.34375 lineto
94.44922 -312.84375 lineto
94.657555 -312.3021 94.98047 -311.8854 95.41797 -311.59375 curveto
95.85547 -311.3021 96.37109 -311.15625 96.96484 -311.15625 curveto
97.27734 -311.15625 97.56901 -311.1953 97.83984 -311.27344 curveto
98.11068 -311.35156 98.36588 -311.47397 98.60547 -311.64062 curveto
98.60547 -312.92188 lineto
closepath
103.34668 -309.17188 moveto
103.34668 -311.34375 lineto
106.206055 -311.34375 lineto
106.206055 -312.32812 lineto
103.34668 -312.32812 lineto
103.34668 -316.48438 lineto
103.34668 -317.04688 103.45345 -317.4401 103.66699 -317.66406 curveto
103.88053 -317.88803 104.25293 -318.0 104.78418 -318.0 curveto
106.206055 -318.0 lineto
106.206055 -319.0 lineto
104.65918 -319.0 lineto
103.72168 -319.0 103.05762 -318.8099 102.66699 -318.4297 curveto
102.27637 -318.04947 102.081055 -317.40103 102.081055 -316.48438 curveto
102.081055 -312.32812 lineto
100.03418 -312.32812 lineto
100.03418 -311.34375 lineto
102.081055 -311.34375 lineto
102.081055 -309.17188 lineto
103.34668 -309.17188 lineto
closepath
115.18164 -314.85938 moveto
115.18164 -315.46875 lineto
109.728516 -315.46875 lineto
109.728516 -315.51562 lineto
109.728516 -316.34897 109.944664 -316.9922 110.37695 -317.4453 curveto
110.80924 -317.89844 111.42643 -318.125 112.228516 -318.125 curveto
112.62435 -318.125 113.041016 -318.0625 113.478516 -317.9375 curveto
113.916016 -317.8125 114.384766 -317.61978 114.884766 -317.35938 curveto
114.884766 -318.60938 lineto
114.4056 -318.80728 113.942055 -318.95572 113.49414 -319.0547 curveto
113.04623 -319.15366 112.61914 -319.20312 112.21289 -319.20312 curveto
111.01498 -319.20312 110.08268 -318.84634 109.416016 -318.1328 curveto
108.74935 -317.41928 108.416016 -316.43228 108.416016 -315.17188 curveto
108.416016 -313.95312 108.74414 -312.97916 109.40039 -312.25 curveto
110.05664 -311.52084 110.93164 -311.15625 112.02539 -311.15625 curveto
112.99414 -311.15625 113.76237 -311.48697 114.33008 -312.14844 curveto
114.89779 -312.8099 115.18164 -313.71353 115.18164 -314.85938 curveto
closepath
113.916016 -314.48438 moveto
113.89518 -313.74478 113.7207 -313.18228 113.39258 -312.79688 curveto
113.06445 -312.41147 112.58789 -312.21875 111.96289 -312.21875 curveto
111.35873 -312.21875 110.86133 -312.41928 110.4707 -312.8203 curveto
110.08008 -313.22134 109.848305 -313.78125 109.77539 -314.5 curveto
113.916016 -314.48438 lineto
closepath
123.8916 -312.92188 moveto
123.63119 -312.71353 123.36035 -312.5625 123.0791 -312.46875 curveto
122.79785 -312.375 122.49056 -312.32812 122.15723 -312.32812 curveto
121.37598 -312.32812 120.777016 -312.5729 120.36035 -313.0625 curveto
119.94369 -313.5521 119.73535 -314.2604 119.73535 -315.1875 curveto
119.73535 -319.0 lineto
118.46973 -319.0 lineto
118.46973 -311.34375 lineto
119.73535 -311.34375 lineto
119.73535 -312.84375 lineto
119.94369 -312.3021 120.2666 -311.8854 120.7041 -311.59375 curveto
121.1416 -311.3021 121.65723 -311.15625 122.25098 -311.15625 curveto
122.56348 -311.15625 122.85514 -311.1953 123.12598 -311.27344 curveto
123.39681 -311.35156 123.652016 -311.47397 123.8916 -311.64062 curveto
123.8916 -312.92188 lineto
closepath
fill
newpath
1.0 setlinewidth
10.0 setmiterlimit
0 setlinejoin
2 setlinecap
[ ] 0 setdash
1.0 setlinewidth
10.0 setmiterlimit
0 setlinejoin
2 setlinecap
[ ] 0 setdash
0.29803923 0.29803923 0.29803923 setrgbcolor
0.0 0.0 0.0 setrgbcolor
1.0 1.0 1.0 setrgbcolor
newpath
300.0 -130.0 moveto
344.0 -130.0 lineto
344.0 -150.0 lineto
300.0 -150.0 lineto
300.0 -130.0 lineto
closepath
fill
newpath
newpath
300.0 -150.0 moveto
409.0 -150.0 lineto
409.0 -199.0 lineto
300.0 -199.0 lineto
300.0 -150.0 lineto
closepath
fill
newpath
0.0 0.0 0.0 setrgbcolor
newpath
300.0 -130.0 moveto
344.0 -130.0 lineto
344.0 -150.0 lineto
300.0 -150.0 lineto
300.0 -130.0 lineto
closepath
stroke
newpath
newpath
300.0 -150.0 moveto
409.0 -150.0 lineto
409.0 -199.0 lineto
300.0 -199.0 lineto
300.0 -150.0 lineto
closepath
stroke
newpath
newpath
334.59375 -168.79688 moveto
336.4375 -168.79688 lineto
338.20312 -173.98438 lineto
339.96875 -168.79688 lineto
341.82812 -168.79688 lineto
341.82812 -179.0 lineto
340.54688 -179.0 lineto
340.54688 -169.98438 lineto
338.73438 -175.35938 lineto
337.6875 -175.35938 lineto
335.85938 -169.98438 lineto
335.85938 -179.0 lineto
334.59375 -179.0 lineto
334.59375 -168.79688 lineto
closepath
346.64746 -172.21875 moveto
346.00162 -172.21875 345.51465 -172.46875 345.18652 -172.96875 curveto
344.8584 -173.46875 344.69434 -174.20312 344.69434 -175.17188 curveto
344.69434 -176.15105 344.8584 -176.88802 345.18652 -177.38281 curveto
345.51465 -177.87761 346.00162 -178.125 346.64746 -178.125 curveto
347.28287 -178.125 347.76465 -177.87761 348.09277 -177.38281 curveto
348.4209 -176.88802 348.58496 -176.15105 348.58496 -175.17188 curveto
348.58496 -174.20312 348.4209 -173.46875 348.09277 -172.96875 curveto
347.76465 -172.46875 347.28287 -172.21875 346.64746 -172.21875 curveto
closepath
346.64746 -171.15625 moveto
347.69955 -171.15625 348.50943 -171.5 349.07715 -172.1875 curveto
349.64487 -172.875 349.9287 -173.8698 349.9287 -175.17188 curveto
349.9287 -176.48438 349.64746 -177.48438 349.08496 -178.17188 curveto
348.52246 -178.85938 347.70996 -179.20312 346.64746 -179.20312 curveto
345.58496 -179.20312 344.77246 -178.85938 344.20996 -178.17188 curveto
343.64746 -177.48438 343.3662 -176.48438 343.3662 -175.17188 curveto
343.3662 -173.8698 343.64746 -172.875 344.20996 -172.1875 curveto
344.77246 -171.5 345.58496 -171.15625 346.64746 -171.15625 curveto
closepath
356.7168 -172.32812 moveto
356.7168 -168.35938 lineto
357.98242 -168.35938 lineto
357.98242 -179.0 lineto
356.7168 -179.0 lineto
356.7168 -178.03125 lineto
356.50845 -178.41667 356.22983 -178.70833 355.88086 -178.90625 curveto
355.5319 -179.10417 355.13345 -179.20312 354.68555 -179.20312 curveto
353.75845 -179.20312 353.0293 -178.84375 352.49805 -178.125 curveto
351.9668 -177.40625 351.70117 -176.41667 351.70117 -175.15625 curveto
351.70117 -173.90625 351.9668 -172.92708 352.49805 -172.21875 curveto
353.0293 -171.51042 353.75845 -171.15625 354.68555 -171.15625 curveto
355.1439 -171.15625 355.54752 -171.2552 355.89648 -171.45312 curveto
356.24545 -171.65105 356.5189 -171.9427 356.7168 -172.32812 curveto
closepath
353.0293 -175.17188 moveto
353.0293 -176.15105 353.18295 -176.88802 353.49023 -177.38281 curveto
353.79752 -177.87761 354.25327 -178.125 354.85742 -178.125 curveto
355.47202 -178.125 355.93555 -177.875 356.24805 -177.375 curveto
356.56055 -176.875 356.7168 -176.14062 356.7168 -175.17188 curveto
356.7168 -174.20312 356.56055 -173.46875 356.24805 -172.96875 curveto
355.93555 -172.46875 355.47202 -172.21875 354.85742 -172.21875 curveto
354.25327 -172.21875 353.79752 -172.46875 353.49023 -172.96875 curveto
353.18295 -173.46875 353.0293 -174.20312 353.0293 -175.17188 curveto
closepath
366.8955 -174.85938 moveto
366.8955 -175.46875 lineto
361.44238 -175.46875 lineto
361.44238 -175.51562 lineto
361.44238 -176.34895 361.65854 -176.99219 362.09082 -177.44531 curveto
362.5231 -177.89844 363.1403 -178.125 363.94238 -178.125 curveto
364.33823 -178.125 364.75488 -178.0625 365.19238 -177.9375 curveto
365.62988 -177.8125 366.09863 -177.6198 366.59863 -177.35938 curveto
366.59863 -178.60938 lineto
366.11948 -178.8073 365.6559 -178.95573 365.208 -179.05469 curveto
364.7601 -179.15364 364.333 -179.20312 363.92676 -179.20312 curveto
362.72885 -179.20312 361.79654 -178.84636 361.12988 -178.13281 curveto
360.46323 -177.41927 360.12988 -176.4323 360.12988 -175.17188 curveto
360.12988 -173.95312 360.458 -172.97917 361.11426 -172.25 curveto
361.7705 -171.52083 362.6455 -171.15625 363.73926 -171.15625 curveto
364.708 -171.15625 365.47623 -171.48698 366.04395 -172.14844 curveto
366.61166 -172.80989 366.8955 -173.71355 366.8955 -174.85938 curveto
closepath
365.62988 -174.48438 moveto
365.60904 -173.7448 365.43457 -173.1823 365.10645 -172.79688 curveto
364.77832 -172.41145 364.30176 -172.21875 363.67676 -172.21875 curveto
363.0726 -172.21875 362.5752 -172.41927 362.18457 -172.82031 curveto
361.79395 -173.22136 361.56216 -173.78125 361.48926 -174.5 curveto
365.62988 -174.48438 lineto
closepath
372.08984 -176.21875 moveto
372.08984 -176.79167 372.1914 -177.22136 372.39453 -177.50781 curveto
372.59766 -177.79427 372.90234 -177.9375 373.3086 -177.9375 curveto
374.77734 -177.9375 lineto
374.77734 -179.0 lineto
373.1836 -179.0 lineto
372.4336 -179.0 371.85287 -178.75781 371.4414 -178.27344 curveto
371.02994 -177.78906 370.82422 -177.10417 370.82422 -176.21875 curveto
370.82422 -169.26562 lineto
368.8086 -169.26562 lineto
368.8086 -168.28125 lineto
372.08984 -168.28125 lineto
372.08984 -176.21875 lineto
closepath
fill
newpath
1.0 setlinewidth
10.0 setmiterlimit
0 setlinejoin
2 setlinecap
[ ] 0 setdash
1.0 setlinewidth
10.0 setmiterlimit
0 setlinejoin
2 setlinecap
[ ] 0 setdash
0.29803923 0.29803923 0.29803923 setrgbcolor
0.0 0.0 0.0 setrgbcolor
1.0 setlinewidth
5.0 setmiterlimit
0 setlinejoin
0 setlinecap
[ 8.0 5.0 ] 0 setdash
newpath
130.0 -180.0 moveto
155.0 -180.0 lineto
stroke
newpath
newpath
155.0 -180.0 moveto
180.0 -180.0 lineto
stroke
newpath
1.0 setlinewidth
10.0 setmiterlimit
0 setlinejoin
2 setlinecap
[ ] 0 setdash
newpath
130.0 -180.0 moveto
142.0 -174.0 lineto
stroke
newpath
newpath
130.0 -180.0 moveto
142.0 -186.0 lineto
stroke
newpath
1.0 setlinewidth
10.0 setmiterlimit
0 setlinejoin
2 setlinecap
[ ] 0 setdash
1.0 setlinewidth
10.0 setmiterlimit
0 setlinejoin
2 setlinecap
[ ] 0 setdash
0.29803923 0.29803923 0.29803923 setrgbcolor
0.0 0.0 0.0 setrgbcolor
1.0 setlinewidth
5.0 setmiterlimit
0 setlinejoin
0 setlinecap
[ 8.0 5.0 ] 0 setdash
newpath
140.0 -320.0 moveto
220.0 -320.0 lineto
stroke
newpath
newpath
220.0 -320.0 moveto
300.0 -320.0 lineto
stroke
newpath
1.0 setlinewidth
10.0 setmiterlimit
0 setlinejoin
2 setlinecap
[ ] 0 setdash
newpath
140.0 -320.0 moveto
152.0 -314.0 lineto
stroke
newpath
newpath
140.0 -320.0 moveto
152.0 -326.0 lineto
stroke
newpath
1.0 setlinewidth
10.0 setmiterlimit
0 setlinejoin
2 setlinecap
[ ] 0 setdash
1.0 setlinewidth
10.0 setmiterlimit
0 setlinejoin
2 setlinecap
[ ] 0 setdash
0.29803923 0.29803923 0.29803923 setrgbcolor
0.0 0.0 0.0 setrgbcolor
1.0 setlinewidth
5.0 setmiterlimit
0 setlinejoin
0 setlinecap
[ 8.0 5.0 ] 0 setdash
newpath
360.0 -200.0 moveto
360.0 -220.0 lineto
stroke
newpath
newpath
360.0 -220.0 moveto
375.0 -230.0 lineto
stroke
newpath
newpath
375.0 -230.0 moveto
390.0 -240.0 lineto
stroke
newpath
newpath
390.0 -240.0 moveto
390.0 -280.0 lineto
stroke
newpath
1.0 setlinewidth
10.0 setmiterlimit
0 setlinejoin
2 setlinecap
[ ] 0 setdash
newpath
360.0 -200.0 moveto
366.0 -212.0 lineto
stroke
newpath
newpath
360.0 -200.0 moveto
354.0 -212.0 lineto
stroke
newpath
1.0 setlinewidth
10.0 setmiterlimit
0 setlinejoin
2 setlinecap
[ ] 0 setdash
1.0 setlinewidth
10.0 setmiterlimit
0 setlinejoin
2 setlinecap
[ ] 0 setdash
0.29803923 0.29803923 0.29803923 setrgbcolor
0.0 0.0 0.0 setrgbcolor
1.0 setlinewidth
5.0 setmiterlimit
0 setlinejoin
0 setlinecap
[ 8.0 5.0 ] 0 setdash
newpath
50.0 -200.0 moveto
50.0 -230.0 lineto
stroke
newpath
newpath
50.0 -230.0 moveto
200.0 -240.0 lineto
stroke
newpath
newpath
200.0 -240.0 moveto
350.0 -250.0 lineto
stroke
newpath
newpath
350.0 -250.0 moveto
350.0 -280.0 lineto
stroke
newpath
1.0 setlinewidth
10.0 setmiterlimit
0 setlinejoin
2 setlinecap
[ ] 0 setdash
newpath
50.0 -200.0 moveto
56.0 -212.0 lineto
stroke
newpath
newpath
50.0 -200.0 moveto
44.0 -212.0 lineto
stroke
newpath
1.0 setlinewidth
10.0 setmiterlimit
0 setlinejoin
2 setlinecap
[ ] 0 setdash
1.0 setlinewidth
10.0 setmiterlimit
0 setlinejoin
2 setlinecap
[ ] 0 setdash
0.29803923 0.29803923 0.29803923 setrgbcolor
0.0 0.0 0.0 setrgbcolor
1.0 setlinewidth
5.0 setmiterlimit
0 setlinejoin
0 setlinecap
[ 8.0 5.0 ] 0 setdash
newpath
240.0 -200.0 moveto
240.0 -220.0 lineto
stroke
newpath
newpath
240.0 -220.0 moveto
305.0 -230.0 lineto
stroke
newpath
newpath
305.0 -230.0 moveto
370.0 -240.0 lineto
stroke
newpath
newpath
370.0 -240.0 moveto
370.0 -280.0 lineto
stroke
newpath
1.0 setlinewidth
10.0 setmiterlimit
0 setlinejoin
2 setlinecap
[ ] 0 setdash
newpath
240.0 -200.0 moveto
246.0 -212.0 lineto
stroke
newpath
newpath
240.0 -200.0 moveto
234.0 -212.0 lineto
stroke
newpath
1.0 setlinewidth
10.0 setmiterlimit
0 setlinejoin
2 setlinecap
[ ] 0 setdash
1.0 setlinewidth
10.0 setmiterlimit
0 setlinejoin
2 setlinecap
[ ] 0 setdash
0.29803923 0.29803923 0.29803923 setrgbcolor
0.0 0.0 0.0 setrgbcolor
1.0 1.0 1.0 setrgbcolor
newpath
30.0 -130.0 moveto
70.0 -130.0 lineto
70.0 -150.0 lineto
30.0 -150.0 lineto
30.0 -130.0 lineto
closepath
fill
newpath
newpath
30.0 -150.0 moveto
129.0 -150.0 lineto
129.0 -199.0 lineto
30.0 -199.0 lineto
30.0 -150.0 lineto
closepath
fill
newpath
0.0 0.0 0.0 setrgbcolor
newpath
30.0 -130.0 moveto
70.0 -130.0 lineto
70.0 -150.0 lineto
30.0 -150.0 lineto
30.0 -130.0 lineto
closepath
stroke
newpath
newpath
30.0 -150.0 moveto
129.0 -150.0 lineto
129.0 -199.0 lineto
30.0 -199.0 lineto
30.0 -150.0 lineto
closepath
stroke
newpath
newpath
61.46875 -168.79688 moveto
62.859375 -168.79688 lineto
62.859375 -177.84375 lineto
67.78125 -177.84375 lineto
67.78125 -179.0 lineto
61.46875 -179.0 lineto
61.46875 -168.79688 lineto
closepath
72.64746 -172.21875 moveto
72.001625 -172.21875 71.51465 -172.46875 71.18652 -172.96875 curveto
70.8584 -173.46875 70.694336 -174.20312 70.694336 -175.17188 curveto
70.694336 -176.15105 70.8584 -176.88802 71.18652 -177.38281 curveto
71.51465 -177.87761 72.001625 -178.125 72.64746 -178.125 curveto
73.282875 -178.125 73.76465 -177.87761 74.09277 -177.38281 curveto
74.4209 -176.88802 74.58496 -176.15105 74.58496 -175.17188 curveto
74.58496 -174.20312 74.4209 -173.46875 74.09277 -172.96875 curveto
73.76465 -172.46875 73.282875 -172.21875 72.64746 -172.21875 curveto
closepath
72.64746 -171.15625 moveto
73.69955 -171.15625 74.50944 -171.5 75.07715 -172.1875 curveto
75.64486 -172.875 75.92871 -173.8698 75.92871 -175.17188 curveto
75.92871 -176.48438 75.64746 -177.48438 75.08496 -178.17188 curveto
74.52246 -178.85938 73.70996 -179.20312 72.64746 -179.20312 curveto
71.58496 -179.20312 70.77246 -178.85938 70.20996 -178.17188 curveto
69.64746 -177.48438 69.36621 -176.48438 69.36621 -175.17188 curveto
69.36621 -173.8698 69.64746 -172.875 70.20996 -172.1875 curveto
70.77246 -171.5 71.58496 -171.15625 72.64746 -171.15625 curveto
closepath
82.7168 -175.10938 moveto
82.7168 -174.16145 82.56315 -173.4427 82.25586 -172.95312 curveto
81.94857 -172.46355 81.50326 -172.21875 80.91992 -172.21875 curveto
80.305336 -172.21875 79.836586 -172.46355 79.51367 -172.95312 curveto
79.19076 -173.4427 79.0293 -174.16145 79.0293 -175.10938 curveto
79.0293 -176.0573 79.19076 -176.77864 79.51367 -177.27344 curveto
79.836586 -177.76823 80.31055 -178.01562 80.93555 -178.01562 curveto
81.50846 -178.01562 81.94857 -177.76562 82.25586 -177.26562 curveto
82.56315 -176.76562 82.7168 -176.04688 82.7168 -175.10938 curveto
closepath
83.98242 -178.5 moveto
83.98242 -179.65625 83.711586 -180.53125 83.16992 -181.125 curveto
82.62826 -181.71875 81.83138 -182.01562 80.7793 -182.01562 curveto
80.42513 -182.01562 80.06055 -181.98177 79.68555 -181.91406 curveto
79.31055 -181.84636 78.93555 -181.75 78.56055 -181.625 curveto
78.56055 -180.39062 lineto
78.99805 -180.59895 79.399086 -180.75261 79.76367 -180.85156 curveto
80.12826 -180.95052 80.4668 -181.0 80.7793 -181.0 curveto
81.45638 -181.0 81.94857 -180.81511 82.25586 -180.44531 curveto
82.56315 -180.07552 82.7168 -179.48958 82.7168 -178.6875 curveto
82.7168 -178.64062 lineto
82.7168 -177.78125 lineto
82.51888 -178.20833 82.24805 -178.52864 81.9043 -178.74219 curveto
81.56055 -178.95573 81.13867 -179.0625 80.63867 -179.0625 curveto
79.742836 -179.0625 79.0293 -178.70312 78.49805 -177.98438 curveto
77.9668 -177.26562 77.70117 -176.3073 77.70117 -175.10938 curveto
77.70117 -173.91145 77.9668 -172.95312 78.49805 -172.23438 curveto
79.0293 -171.51562 79.742836 -171.15625 80.63867 -171.15625 curveto
81.12826 -171.15625 81.54492 -171.2552 81.88867 -171.45312 curveto
82.23242 -171.65105 82.50846 -171.95312 82.7168 -172.35938 curveto
82.7168 -171.375 lineto
83.98242 -171.375 lineto
83.98242 -178.5 lineto
closepath
87.03613 -171.34375 moveto
90.25488 -171.34375 lineto
90.25488 -178.01562 lineto
92.75488 -178.01562 lineto
92.75488 -179.0 lineto
86.50488 -179.0 lineto
86.50488 -178.01562 lineto
89.00488 -178.01562 lineto
89.00488 -172.32812 lineto
87.03613 -172.32812 lineto
87.03613 -171.34375 lineto
closepath
89.00488 -168.35938 moveto
90.25488 -168.35938 lineto
90.25488 -169.95312 lineto
89.00488 -169.95312 lineto
89.00488 -168.35938 lineto
closepath
100.96484 -178.60938 moveto
100.63151 -178.8073 100.28516 -178.95573 99.92578 -179.05469 curveto
99.56641 -179.15364 99.19922 -179.20312 98.82422 -179.20312 curveto
97.64713 -179.20312 96.72266 -178.84636 96.05078 -178.13281 curveto
95.37891 -177.41927 95.04297 -176.4323 95.04297 -175.17188 curveto
95.04297 -173.92188 95.37891 -172.94011 96.05078 -172.22656 curveto
96.72266 -171.51302 97.64713 -171.15625 98.82422 -171.15625 curveto
99.19922 -171.15625 99.561195 -171.20573 99.91016 -171.30469 curveto
100.25912 -171.40364 100.61068 -171.55208 100.96484 -171.75 curveto
100.96484 -173.0625 lineto
100.63151 -172.77083 100.29818 -172.5573 99.96484 -172.42188 curveto
99.63151 -172.28645 99.251305 -172.21875 98.82422 -172.21875 curveto
98.04297 -172.21875 97.438805 -172.47395 97.01172 -172.98438 curveto
96.58463 -173.4948 96.37109 -174.22395 96.37109 -175.17188 curveto
96.37109 -176.1198 96.58463 -176.84895 97.01172 -177.35938 curveto
97.438805 -177.8698 98.04297 -178.125 98.82422 -178.125 curveto
99.26172 -178.125 99.654945 -178.05989 100.00391 -177.92969 curveto
100.35287 -177.79948 100.67318 -177.58855 100.96484 -177.29688 curveto
100.96484 -178.60938 lineto
closepath
fill
newpath
1.0 setlinewidth
10.0 setmiterlimit
0 setlinejoin
2 setlinecap
[ ] 0 setdash
1.0 setlinewidth
10.0 setmiterlimit
0 setlinejoin
2 setlinecap
[ ] 0 setdash
0.29803923 0.29803923 0.29803923 setrgbcolor
0.0 0.0 0.0 setrgbcolor
1.0 setlinewidth
5.0 setmiterlimit
0 setlinejoin
0 setlinecap
[ 8.0 5.0 ] 0 setdash
newpath
100.0 -90.0 moveto
100.0 -90.0 lineto
stroke
newpath
newpath
100.0 -90.0 moveto
100.0 -100.0 lineto
stroke
newpath
newpath
100.0 -100.0 moveto
100.0 -110.0 lineto
stroke
newpath
newpath
100.0 -110.0 moveto
100.0 -140.0 lineto
stroke
newpath
1.0 setlinewidth
10.0 setmiterlimit
0 setlinejoin
2 setlinecap
[ ] 0 setdash
newpath
100.0 -90.0 moveto
106.0 -102.0 lineto
stroke
newpath
newpath
100.0 -90.0 moveto
94.0 -102.0 lineto
stroke
newpath
1.0 setlinewidth
10.0 setmiterlimit
0 setlinejoin
2 setlinecap
[ ] 0 setdash
grestore
grestore
showpage

%%EOF