%!PS-Adobe-3.0 EPSF-3.0
%%Creator: cairo 1.12.2 (http://cairographics.org)
%%CreationDate: Wed Mar 27 21:35:20 2013
%%Pages: 1
%%DocumentData: Clean7Bit
%%LanguageLevel: 2
%%BoundingBox: 0 -1 138 165
%%EndComments
%%BeginProlog
save
50 dict begin
/q { gsave } bind def
/Q { grestore } bind def
/cm { 6 array astore concat } bind def
/w { setlinewidth } bind def
/J { setlinecap } bind def
/j { setlinejoin } bind def
/M { setmiterlimit } bind def
/d { setdash } bind def
/m { moveto } bind def
/l { lineto } bind def
/c { curveto } bind def
/h { closepath } bind def
/re { exch dup neg 3 1 roll 5 3 roll moveto 0 rlineto
      0 exch rlineto 0 rlineto closepath } bind def
/S { stroke } bind def
/f { fill } bind def
/f* { eofill } bind def
/n { newpath } bind def
/W { clip } bind def
/W* { eoclip } bind def
/BT { } bind def
/ET { } bind def
/pdfmark where { pop globaldict /?pdfmark /exec load put }
    { globaldict begin /?pdfmark /pop load def /pdfmark
    /cleartomark load def end } ifelse
/BDC { mark 3 1 roll /BDC pdfmark } bind def
/EMC { mark /EMC pdfmark } bind def
/cairo_store_point { /cairo_point_y exch def /cairo_point_x exch def } def
/Tj { show currentpoint cairo_store_point } bind def
/TJ {
  {
    dup
    type /stringtype eq
    { show } { -0.001 mul 0 cairo_font_matrix dtransform rmoveto } ifelse
  } forall
  currentpoint cairo_store_point
} bind def
/cairo_selectfont { cairo_font_matrix aload pop pop pop 0 0 6 array astore
    cairo_font exch selectfont cairo_point_x cairo_point_y moveto } bind def
/Tf { pop /cairo_font exch def /cairo_font_matrix where
      { pop cairo_selectfont } if } bind def
/Td { matrix translate cairo_font_matrix matrix concatmatrix dup
      /cairo_font_matrix exch def dup 4 get exch 5 get cairo_store_point
      /cairo_font where { pop cairo_selectfont } if } bind def
/Tm { 2 copy 8 2 roll 6 array astore /cairo_font_matrix exch def
      cairo_store_point /cairo_font where { pop cairo_selectfont } if } bind def
/g { setgray } bind def
/rg { setrgbcolor } bind def
/d1 { setcachedevice } bind def
%%EndProlog
%%Page: 1 1
%%BeginPageSetup
%%PageBoundingBox: 0 -1 138 165
%%EndPageSetup
q 0 -1 138 166 rectclip q
0.486275 0.752941 0.25098 rg
5.809 5.032 m 0 10.371 l 0.008 78.141 l 0.02 145.043 0.039 145.969 1.699
 150.407 c 5.25 159.895 10.586 163.121 24.02 163.907 c 32.074 164.375 34.566
 164.039 84.82 155.754 c 137.219 147.114 l 137.219 91.141 l 137.219 48.02
 136.984 34.399 136.195 31.805 c 134.941 27.672 130.812 22.121 127.605 20.258
 c 126.02 19.336 106.758 15.778 70.02 9.618 c 39.66 4.524 14.098 0.207 13.219
 0.024 c 12.094 -0.211 9.891 1.278 5.809 5.032 c h
78.918 23.571 m 80.723 23.571 80.82 23.832 80.82 28.77 c 80.82 33.395 80.645
 33.973 79.258 33.973 c 76.293 33.973 73.773 35.766 72.375 38.871 c 71.602
 40.586 71.113 42.102 71.293 42.239 c 71.473 42.375 73.32 43.461 75.398 
44.653 c 85.723 50.563 90.348 63.821 90.379 87.571 c 90.414 116.141 83.223
 129.684 66.164 133.161 c 60.805 134.25 54.719 133.664 49.949 131.594 c 
42.816 128.5 37.387 120.223 34.715 108.371 c 32.816 99.942 32.84 76.871 
34.758 67.973 c 37.57 54.914 44.211 45.243 52.18 42.586 c 55.129 41.602 
55.543 41.114 56.781 37.137 c 58.711 30.954 60.438 27.954 63.184 25.996 
c 65.93 24.039 71.371 22.735 74.719 23.231 c 75.984 23.418 77.875 23.571
 78.918 23.571 c h
60.832 53.414 m 58.391 54.633 55.465 58.883 54.445 62.692 c 51.109 75.141
 51.391 105.969 54.918 114.782 c 56.516 118.782 60.215 121.973 63.254 121.973
 c 66.613 121.973 70.844 117.918 72.414 113.188 c 75.191 104.825 75.66 76.75
 73.219 64.95 c 71.277 55.567 66.129 50.774 60.832 53.414 c h
114.418 47.61 m 121.988 49.293 122.418 49.664 122.418 54.524 c 122.418 
58.297 122.23 58.825 121.02 58.465 c 116.223 57.039 115.102 57.028 113.586
 58.403 c 112.105 59.739 112.02 60.977 112.02 80.496 c 112.02 101.172 l 
121.617 101.172 l 121.617 110.567 l 116.82 111.11 l 112.02 111.653 l 112.02
 119.164 l 112.02 123.297 111.75 126.84 111.418 127.043 c 111.09 127.243
 109.047 127.536 106.879 127.688 c 102.941 127.973 l 101.57 122.371 l 100.812
 119.293 99.969 115.782 99.691 114.571 c 99.262 112.688 98.785 112.371 96.402
 112.371 c 93.617 112.371 l 93.617 101.973 l 98.418 101.973 l 98.418 78.739
 l 98.418 50.352 98.738 49.262 107.617 47.309 c 110.172 46.746 110.625 46.766
 114.418 47.61 c h
f
0.00392157 0.380392 0.137255 rg
5.395 5.793 m 0.82 10.418 l 0.82 78.704 l 0.82 128.207 1.074 147.836 1.746
 150.086 c 2.934 154.039 7.328 159.188 11.211 161.168 c 12.871 162.016 16.703
 162.911 19.723 163.157 c 23.789 163.493 24.742 163.399 23.383 162.801 c
 19.426 161.067 15.961 157.614 13.84 153.293 c 11.617 148.77 l 11.395 74.973
 l 11.273 34.383 10.902 1.172 10.57 1.172 c 10.238 1.172 7.91 3.25 5.395
 5.793 c h
62.246 23.727 m 58.461 24.735 54.27 29.321 52.457 34.45 c 51.691 36.606
 50.777 39.114 50.43 40.02 c 50.047 41.004 48.496 42.055 46.562 42.633 c
 39.41 44.778 32.738 54.395 29.836 66.739 c 27.754 75.598 27.812 102.446
 29.93 110.371 c 33.172 122.496 39.328 130.356 47.48 132.774 c 52.734 134.336
 55.945 134.243 51.477 132.661 c 43.953 129.996 38.418 122.739 35.066 111.149
 c 33.391 105.352 33.227 103.239 33.281 87.973 c 33.332 73.469 33.57 70.332
 35.027 65.047 c 38.309 53.141 43.242 46.301 51.109 42.743 c 54.723 41.11
 55.344 40.473 56.109 37.629 c 57.934 30.864 61.555 25.95 66.258 23.86 c
 67.98 23.094 68.094 22.907 66.82 22.918 c 65.938 22.93 63.883 23.293 62.246
 23.727 c h
100.094 47.817 m 93.789 50.028 92.82 54.532 92.82 81.621 c 92.82 99.891
 92.688 101.879 91.48 102.114 c 90.551 102.293 89.852 103.829 89.176 107.172
 c 88.641 109.813 88.363 112.243 88.559 112.571 c 88.754 112.903 89.793 
113.172 90.867 113.172 c 92.75 113.172 92.82 112.977 92.82 107.571 c 92.82
 101.973 l 97.531 101.973 l 97.773 78.571 l 98.047 52.598 98.25 51.516 103.457
 48.34 c 105.457 47.121 105.668 46.786 104.418 46.821 c 103.539 46.844 101.594
 47.293 100.094 47.817 c h
63.426 55.371 m 67.941 60.082 69.617 68.957 69.617 88.094 c 69.617 106.411
 67.434 116.848 62.941 119.996 c 61.309 121.137 61.332 121.172 63.734 121.172
 c 71.922 121.172 74.977 109.848 74.195 82.371 c 73.762 67.094 72.758 61.067
 69.938 56.758 c 68.637 54.774 65.551 53.172 63.031 53.172 c 61.379 53.172
 61.391 53.246 63.426 55.371 c h
115.617 58.77 m 116.5 59.149 118.301 59.457 119.617 59.457 c 121.664 59.457
 121.781 59.356 120.418 58.77 c 119.539 58.395 117.738 58.082 116.418 58.082
 c 114.371 58.082 114.254 58.184 115.617 58.77 c h
94.656 114.172 m 98.152 129.469 97.719 128.371 100.258 128.371 c 102.289
 128.371 102.543 128.133 102.141 126.598 c 101.887 125.625 101.074 122.024
 100.332 118.598 c 99.023 112.532 98.926 112.371 96.617 112.371 c 94.57 
112.371 94.301 112.618 94.656 114.172 c h
f
Q Q
showpage
%%Trailer
end restore
%%EOF
